<?xml version="1.0" encoding="utf-8"?>
<!-- Generator: Adobe Illustrator 16.0.0, SVG Export Plug-In . SVG Version: 6.00 Build 0)  -->
<!DOCTYPE svg PUBLIC "-//W3C//DTD SVG 1.1//EN" "http://www.w3.org/Graphics/SVG/1.1/DTD/svg11.dtd">
<svg version="1.1" id="Calque_1" xmlns="http://www.w3.org/2000/svg" xmlns:xlink="http://www.w3.org/1999/xlink" x="0px" y="0px"
	 width="800px" height="800px" viewBox="0 0 800 800" enable-background="new 0 0 800 800" xml:space="preserve">
<g>
	<ellipse fill="#5696C1" cx="388.982" cy="285.842" rx="165.789" ry="173.246"/>
	<path fill="#9AC0DA" d="M523.965,323.097c0,44.74-61.285,117.009-136.885,117.009s-136.887-72.27-136.887-117.009
		c0-44.74,61.288-30.009,136.887-30.009S523.965,278.356,523.965,323.097z"/>
	<path fill="#4E7FA5" d="M524.965,261.321c0-50.843-35.981-135.058-136.885-135.058c-100.852,0-136.887,84.215-136.887,135.058
		c0,50.843,61.288,33.784,136.887,33.784S524.965,312.164,524.965,261.321z"/>
	<ellipse fill="#B9D9EA" cx="483.873" cy="232.835" rx="12.434" ry="15.87"/>
	<ellipse fill="#B9D9EA" cx="264.166" cy="264.444" rx="4.973" ry="10.394"/>
</g>
<g>
	<ellipse fill="#FF8100" cx="572.982" cy="474.842" rx="165.789" ry="173.246"/>
	<path fill="#F68B5D" d="M707.965,512.097c0,44.74-61.285,117.009-136.885,117.009s-136.887-72.269-136.887-117.009
		s61.287-30.009,136.887-30.009S707.965,467.356,707.965,512.097z"/>
	<path fill="#EA650E" d="M708.965,450.321c0-50.843-35.981-135.058-136.885-135.058c-100.852,0-136.887,84.215-136.887,135.058
		c0,50.843,61.287,33.784,136.887,33.784S708.965,501.164,708.965,450.321z"/>
	<ellipse fill="#FF8100" cx="667.873" cy="421.835" rx="12.434" ry="15.87"/>
	<ellipse fill="#FF8100" cx="448.166" cy="453.444" rx="4.973" ry="10.394"/>
</g>
<g>
	<ellipse fill="#338926" cx="242.982" cy="474.842" rx="165.79" ry="173.246"/>
	<path fill="#7CB374" d="M377.965,512.097c0,44.74-61.285,117.009-136.885,117.009c-75.6,0-136.887-72.269-136.887-117.009
		s61.287-30.009,136.887-30.009C316.68,482.088,377.965,467.356,377.965,512.097z"/>
	<path fill="#167907" d="M378.965,450.321c0-50.843-35.981-135.058-136.885-135.058c-100.852,0-136.887,84.215-136.887,135.058
		c0,50.843,61.287,33.784,136.887,33.784C317.68,484.105,378.965,501.164,378.965,450.321z"/>
	<ellipse fill="#9DC697" cx="337.873" cy="421.835" rx="12.434" ry="15.87"/>
	<ellipse fill="#9DC697" cx="118.166" cy="453.444" rx="4.973" ry="10.394"/>
</g>
</svg>
