<?xml version="1.0" encoding="utf-8"?>
<!-- Generator: Adobe Illustrator 16.0.0, SVG Export Plug-In . SVG Version: 6.00 Build 0)  -->
<!DOCTYPE svg PUBLIC "-//W3C//DTD SVG 1.1//EN" "http://www.w3.org/Graphics/SVG/1.1/DTD/svg11.dtd">
<svg version="1.1" id="Calque_1" xmlns="http://www.w3.org/2000/svg" xmlns:xlink="http://www.w3.org/1999/xlink" x="0px" y="0px"
	 width="800px" height="800px" viewBox="0 0 800 800" enable-background="new 0 0 800 800" xml:space="preserve">
<g id="Calque_1_2_">
	<g id="Calque_1_1_" display="none">
		<g id="Calque_3" display="inline">
			<g>
				<path fill="#FF8100" d="M22.828,312.447c-0.445,0.194,2.273-1.342,5.987-0.428c3.687,0.842,7.672,3.3,11.843,6.909
					c8.352,7.259,18.049,19.184,28.756,35.213c2.662,4.016,5.392,8.284,8.184,12.81c1.395,2.263,2.809,4.587,4.225,6.98
					c1.394,2.404,2.801,4.871,4.217,7.406c2.831,5.074,5.703,10.406,8.583,16.082c1.438,2.841,2.882,5.767,4.312,8.827
					c0.699,1.538,1.396,3.107,2.09,4.734c0.614,1.422,1.346,2.903,2.022,4.369c2.763,5.877,5.602,12.065,8.576,18.021
					c2.94,6.065,5.966,12.307,9.071,18.711c3.08,6.433,6.463,12.945,9.793,19.636c3.423,6.663,6.713,13.537,10.346,20.45
					c1.792,3.46,3.602,6.956,5.428,10.485c1.86,3.513,3.741,7.058,5.638,10.638c1.822,3.604,3.771,7.197,5.681,10.841
					c1.922,3.639,3.846,7.313,5.866,10.979c2,3.672,4.017,7.376,6.05,11.107c2.06,3.72,4.205,7.435,6.235,11.229
					c2.025,3.798,4.183,7.571,6.288,11.396c2.104,3.826,4.261,7.658,6.473,11.495c4.336,7.714,8.95,15.413,13.477,23.26
					c2.278,3.91,4.57,7.848,6.876,11.807c2.307,3.953,4.704,7.885,7.068,11.856c2.354,3.98,4.816,7.924,7.256,11.904
					c1.248,2.034,2.498,4.073,3.752,6.118c1.388,2.374,2.779,4.753,4.175,7.139c2.385,4.199,4.57,7.941,6.765,11.483
					c2.183,3.524,4.348,6.795,6.425,9.634c2.058,2.816,4.084,5.229,5.544,6.597c0.708,0.661,1.267,1.048,1.379,0.968
					c0.063-0.11-0.227-0.668-1.936-1.97c-0.858-0.631-2.078-1.433-3.885-2.308c-1.801-0.867-4.23-1.789-7.33-2.459
					c-0.792-0.177-1.553-0.297-2.432-0.438c-0.428-0.063-0.857-0.117-1.289-0.16c-0.353-0.038-3.156-0.24-1.671-0.146l0.475,0.005
					c0.312,0.014,0.333-0.001-0.557-0.053c-0.608-0.034-1.219-0.055-1.83-0.057c-0.542-0.008-1.37,0.03-1.676,0.034
					c-2.938,0.096-6.144,0.585-9.08,1.444c-2.948,0.847-5.61,2.024-7.759,3.229c-2.159,1.209-3.824,2.425-5.088,3.462
					c-2.533,2.133-3.494,3.357-4.029,3.931c-0.485,0.517-0.475,0.383-0.322-0.189l0.888-2.765c0.766-2.482,1.672-5.911,2.577-9.867
					c1.024-4.679,2.05-9.371,3.081-14.073c0.33-1.438,0.69-2.977,1.138-4.749c0.456-1.782,0.977-3.784,1.836-6.509
					c0.749-2.489,1.498-4.979,2.248-7.473c0.75-2.494,1.502-4.988,2.254-7.487l1.128-3.747l1.213-3.891
					c1.661-5.192,3.326-10.394,4.992-15.603c3.448-10.272,6.749-20.604,10.493-30.876c1.816-5.145,3.653-10.291,5.584-15.43
					c1.923-5.14,3.766-10.297,5.764-15.43l6.076-15.37l6.312-15.334c2.061-5.124,4.334-10.192,6.571-15.263
					c2.227-5.074,4.466-10.146,6.829-15.177c2.351-5.039,4.611-10.099,7.038-15.104c2.462-4.986,4.923-9.975,7.38-14.951
					c9.997-19.874,20.805-39.327,32.156-58.316c2.925-4.7,5.845-9.393,8.758-14.075c2.918-4.675,6.01-9.251,8.999-13.858
					c1.509-2.298,2.993-4.601,4.552-6.859c1.573-2.25,3.146-4.498,4.715-6.741c1.571-2.242,3.142-4.48,4.705-6.716l2.346-3.348
					c0.699-1.026,0.357-0.507,0.589-0.835l0.283-0.385l0.568-0.771l1.136-1.541c1.517-2.055,3.027-4.106,4.537-6.155l2.281-3.058
					l2.527-3.289c1.71-2.21,3.414-4.417,5.116-6.619c1.705-2.199,3.409-4.421,5.097-6.472c3.401-4.161,6.686-8.388,10.152-12.439
					c3.487-4.038,6.916-8.088,10.408-12.055c3.527-3.933,7.038-7.849,10.535-11.748c3.563-3.828,7.115-7.639,10.646-11.432
					c3.604-3.721,7.188-7.424,10.757-11.109c3.576-3.669,7.334-7.137,10.959-10.677c7.366-6.972,14.718-13.78,22.144-20.314
					c3.668-3.313,7.405-6.505,11.119-9.667c1.854-1.583,3.702-3.16,5.544-4.732c1.892-1.516,3.777-3.027,5.656-4.533
					c7.479-6.052,15.029-11.798,22.471-17.417c3.757-2.76,7.483-5.499,11.183-8.215c3.729-2.672,7.458-5.279,11.189-7.809
					c3.696-2.576,7.488-4.964,11.176-7.407c1.854-1.211,3.692-2.415,5.527-3.614c0.034-0.015,0.927-0.686,0.707-0.498l0.334-0.206
					l0.668-0.411l1.329-0.82l2.651-1.636c1.767-1.088,3.522-2.172,5.271-3.25l2.615-1.613c0.949-0.568,1.9-1.134,2.85-1.7
					c3.791-2.265,7.539-4.498,11.291-6.626c7.396-4.007,14.564-7.965,21.708-11.541c3.554-1.818,7.047-3.636,10.559-5.304
					c3.483-1.712,6.946-3.362,10.384-4.949c6.926-3.048,13.598-6.122,20.187-8.831c3.283-1.374,6.501-2.761,9.694-4.06
					c3.188-1.301,6.375-2.491,9.485-3.696c24.912-9.59,46.924-16.467,65.146-21.641c4.557-1.265,8.871-2.463,12.93-3.59
					c4.082-1.044,7.908-2.022,11.47-2.932c7.104-1.824,13.203-3.206,18.141-4.34c4.933-1.136,8.765-1.875,11.325-2.422
					c2.563-0.531,3.893-0.807,3.893-0.807l2.529,5.813c0,0-4.818,2.165-13.852,6.228c-8.999,4.128-22.234,10.104-38.855,18.14
					c-16.61,8.051-36.698,18.005-59.095,30.535c-11.23,6.209-22.962,13.179-35.197,20.715
					c-12.166,7.644-24.813,15.907-37.655,25.011c-3.164,2.312-6.363,4.646-9.592,7.005l-2.429,1.774l-2.428,1.863
					c-1.62,1.245-3.249,2.495-4.886,3.753c-1.618,1.244-3.244,2.495-4.877,3.751c-1.612,1.296-3.229,2.601-4.857,3.908
					c-3.236,2.635-6.568,5.214-9.801,7.974c-13.114,10.801-26.239,22.488-39.336,34.91c-13.09,12.43-26.112,25.641-38.908,39.618
					c-12.786,13.979-25.443,28.638-37.646,44.086c-3.059,3.855-6.048,7.79-9.094,11.704c-3.025,3.93-5.944,7.965-8.939,11.965
					c-2.99,4.007-5.813,8.112-8.745,12.182c-2.923,4.049-5.744,8.35-8.636,12.533c-11.227,16.784-22.174,34.189-32.436,52.128
					c-10.236,17.971-19.979,36.413-29.207,55.212c-9.188,18.817-17.76,38.035-25.983,57.402
					c-8.269,19.354-15.914,38.98-23.227,58.65c-3.691,9.821-7.161,19.71-10.663,29.549c-3.394,9.867-6.796,19.686-10.047,29.598
					c-0.821,2.471-1.641,4.938-2.461,7.402c-0.71,2.15-1.353,4.621-1.989,7.081c-1.264,4.956-2.506,10.057-3.922,15.138
					c-1.418,5.088-2.991,10.185-4.937,15.239c-1.968,5.047-4.261,10.089-7.543,14.917c-1.668,2.398-3.572,4.764-5.99,6.873
					c-2.396,2.103-5.349,3.962-8.732,4.995c-1.68,0.517-3.445,0.833-5.188,0.911c-0.456,0.022-0.973,0.021-1.456,0.021
					c-0.276,0-0.452-0.009-0.591-0.018l-0.474-0.028c-0.984-0.057-1.825-0.177-2.708-0.35c-3.484-0.699-6.445-2.176-8.994-3.824
					c-5.085-3.367-8.83-7.455-12.222-11.592c-3.357-4.166-6.271-8.479-8.977-12.836c-5.392-8.714-9.942-17.66-14.284-26.407
					c-1.081-2.185-2.14-4.354-3.208-6.413c-1.11-2.158-2.219-4.312-3.324-6.457c-2.209-4.309-4.443-8.577-6.563-12.874
					c-8.632-17.111-16.695-34.04-24.233-50.656c-15.117-33.216-28.125-65.188-39.173-95.052c-2.816-7.444-5.366-14.813-7.944-21.979
					c-2.421-7.227-4.909-14.237-7.11-21.151c-1.123-3.45-2.23-6.855-3.324-10.216c-1.055-3.378-2.094-6.711-3.119-9.994
					c-2.087-6.575-3.932-12.949-5.772-19.129c-0.458-1.548-0.914-3.081-1.364-4.603c-0.459-1.488-0.916-2.964-1.368-4.426
					c-0.935-2.924-1.908-5.794-2.896-8.604c-1.977-5.625-4.012-11.014-6.042-16.162c-4.07-10.296-8.131-19.629-12.041-27.925
					c-7.815-16.562-15.109-29.09-21.147-36.275c-2.974-3.594-5.735-5.693-7.265-6.198c-0.761-0.271-1.162-0.266-1.393-0.239
					c-0.211,0.037,0.072-0.042-0.22,0.035c-0.158,0.044-0.237,0.067-0.237,0.067L22.828,312.447z"/>
			</g>
		</g>
	</g>
	<g id="Calque_2">
		<g>
			<path fill="#FF8100" d="M16.5,747.97c0.68-83.757,16.071-293.982,136.551-300.351c88.371-0.932,213.708,169.809,257.519,9.189
				c16.829-61.72,20.577-164.687,74.109-209.151c68.349-56.771,112.394,51.237,166.115,73.366
				c50.015,20.602,45.663-72.626,51.706-111.523c12.331-81.188,19.691-128.302,78.258-195c-9.217,31.36-36.007,82.362-41.258,119
				c-9.442,65.866,21.044,149.545-25.619,202.821c-86.894,99.208-107.06-97.502-171.381,87.179
				c-21.503,61.738-27.607,210.193-91,247c-44.683,28.237-143,7-218-61c-62.839-46.036-103.968-159.392-152-76
				c-12,21-34.173,82.456-43,127C33.457,685.949,26.898,728.512,16.5,747.97z"/>
		</g>
		<g>
			<path fill="none" stroke="#FF8100" stroke-miterlimit="10" d="M15.5,747.97c0.68-83.757,16.071-293.982,136.551-300.351
				c88.371-0.932,213.708,169.809,257.519,9.189c16.829-61.72,20.577-164.687,74.109-209.151
				c68.349-56.771,112.394,51.237,166.115,73.366c50.015,20.602,45.663-72.626,51.706-111.523
				c12.331-81.188,19.691-128.302,78.258-195c-9.217,31.36-36.007,82.362-41.258,119c-9.442,65.866,21.044,149.545-25.619,202.821
				c-86.894,99.208-107.06-97.502-171.381,87.179c-21.503,61.738-27.607,210.193-91,247c-44.683,28.237-143,7-218-61
				c-62.839-46.036-103.968-159.392-152-76c-12,21-34.173,82.456-43,127C32.457,685.949,25.898,728.512,15.5,747.97z"/>
		</g>
		<path fill="#FF8100" d="M152.378,62.577c0,0,9.894-6.518,15.063-9.205c3.311-17.637,4.505-18.255,4.505-18.255
			s1.69,9.559,7.095,16.217c7.951,2.713,20.355,4.474,20.355,4.474s-9.062,3.724-18.109,8.423
			c-0.122,13.03-0.044,20.006-0.044,20.006s-4.994-8.854-10.682-18.536C158.149,63.29,152.378,62.577,152.378,62.577z"/>
		<path fill="#FF8100" d="M274.942,182.911c0,0,19.668-12.958,29.944-18.299c6.578-35.065,8.958-36.294,8.958-36.294
			s3.36,19.001,14.106,32.241c15.805,5.391,40.463,8.892,40.463,8.892s-18.014,7.404-35.999,16.746
			c-0.245,25.902-0.088,39.776-0.088,39.776s-9.926-17.608-21.233-36.855C286.416,184.324,274.942,182.911,274.942,182.911z"/>
		<path fill="#FF8100" d="M193.828,116.376c0,0,19.667-12.957,29.944-18.297c6.577-35.065,8.957-36.295,8.957-36.295
			s3.361,19.001,14.108,32.24c15.804,5.393,40.463,8.894,40.463,8.894s-18.014,7.402-35.999,16.745
			c-0.244,25.902-0.089,39.776-0.089,39.776s-9.926-17.607-21.232-36.856C205.302,117.79,193.828,116.376,193.828,116.376z"/>
		<path fill="#FF8100" d="M14.691,212.528c0,0,22.427-9.44,83.566-35.033C115.716,84.43,117.876,63.75,117.876,63.75
			s14.87,43.322,37.712,103.048c87.568,3.955,107.118,6.127,107.118,6.127s-47.81,19.645-95.542,44.445
			c-0.648,68.747-0.23,105.567-0.23,105.567s-26.348-46.73-56.356-97.815C45.077,215.266,14.691,212.528,14.691,212.528z"/>
		<path fill="#FF8100" d="M339.517,116.085c0,0,5.452-2.293,20.312-8.513c4.246-22.622,4.771-27.648,4.771-27.648
			s3.612,10.53,9.166,25.047c21.284,0.96,26.036,1.49,26.036,1.49s-11.62,4.774-23.223,10.801
			c-0.157,16.71-0.057,25.661-0.057,25.661s-6.405-11.359-13.697-23.777C346.903,116.752,339.517,116.085,339.517,116.085z"/>
		<path fill="#FF8100" d="M396.799,177.353c0,0,5.451-2.293,20.312-8.514c4.245-22.622,4.77-27.648,4.77-27.648
			s3.613,10.531,9.167,25.048c21.283,0.96,26.037,1.489,26.037,1.489s-11.623,4.773-23.224,10.802
			c-0.159,16.71-0.058,25.66-0.058,25.66s-6.406-11.358-13.696-23.777C404.185,178.02,396.799,177.353,396.799,177.353z"/>
		<path fill="#FF8100" d="M480.692,188.916c0,0,4.19-1.764,15.619-6.548c3.265-17.394,3.669-21.26,3.669-21.26
			s2.778,8.098,7.046,19.26c16.368,0.741,20.021,1.146,20.021,1.146s-8.936,3.671-17.857,8.307
			c-0.12,12.849-0.042,19.732-0.042,19.732s-4.926-8.735-10.533-18.283C486.373,189.429,480.692,188.916,480.692,188.916z"/>
		<path fill="#FF8100" d="M190.569,263.542c0,0,7.951-3.346,29.626-12.42c6.19-32.997,6.957-40.327,6.957-40.327
			s5.272,15.359,13.371,36.533c31.045,1.403,37.978,2.173,37.978,2.173s-16.951,6.965-33.873,15.756
			c-0.229,24.374-0.081,37.428-0.081,37.428s-9.342-16.567-19.981-34.678C201.34,264.512,190.569,263.542,190.569,263.542z"/>
	</g>
</g>
<g id="Calque_2_1_">
</g>
</svg>
