<?xml version="1.0" encoding="utf-16"?>
<!-- Generator: Adobe Illustrator 16.0.0, SVG Export Plug-In . SVG Version: 6.00 Build 0)  -->
<!DOCTYPE svg PUBLIC "-//W3C//DTD SVG 1.1//EN" "http://www.w3.org/Graphics/SVG/1.1/DTD/svg11.dtd">
<svg version="1.1" id="Calque_2_1_" xmlns="http://www.w3.org/2000/svg" xmlns:xlink="http://www.w3.org/1999/xlink" x="0px"
	 y="0px" width="800px" height="800px" viewBox="0 0 800 800" enable-background="new 0 0 800 800" xml:space="preserve">
<g id="Calque_3_2_">
	<polygon fill="#FFFFFF" stroke="#FF8100" stroke-width="14" stroke-miterlimit="10" points="12.286,136.624 326.175,136.624 
		326.175,470.358 12.286,470.369 	"/>
	
		<rect x="73.703" y="101.263" fill="none" stroke="#FF8100" stroke-width="14" stroke-miterlimit="10" width="313.879" height="333.744"/>
	
		<rect x="73.703" y="101.263" opacity="0.2" fill="#0A819A" stroke="#FF8100" stroke-width="14" stroke-miterlimit="10" enable-background="new    " width="313.879" height="333.744"/>
	
		<rect x="12.909" y="137.5" transform="matrix(-1 -0.0041 0.0041 -1 338.163 607.9285)" opacity="0.5" fill="#0A819A" stroke="#FF8100" stroke-width="14" stroke-miterlimit="10" enable-background="new    " width="313.591" height="332.236"/>
	
		<polygon opacity="0.2" fill="#0A819A" stroke="#FF8100" stroke-width="14" stroke-miterlimit="10" enable-background="new    " points="
		326.113,137.243 13.242,137.243 73.834,101.263 387.25,101.263 	"/>
	
		<polygon opacity="0.2" fill="#0A819A" stroke="#FF8100" stroke-width="14" stroke-miterlimit="10" enable-background="new    " points="
		326.762,469.735 13.891,469.735 74.482,433.762 387.915,433.762 	"/>
	
		<polygon opacity="0.3" fill="#0A819A" stroke="#FF8100" stroke-width="14" stroke-miterlimit="10" enable-background="new    " points="
		12.93,469.444 13.891,137.502 74.482,101.263 74.083,433.212 	"/>
	
		<polygon opacity="0.3" fill="#0A819A" stroke="#FF8100" stroke-width="14" stroke-miterlimit="10" enable-background="new    " points="
		326.762,469.444 327.717,137.502 388.309,101.263 387.915,433.212 	"/>
	<line fill="none" stroke="#FF8100" stroke-width="14" stroke-miterlimit="10" x1="13.242" y1="197.569" x2="327.93" y2="196.998"/>
	<line fill="none" stroke="#FF8100" stroke-width="14" stroke-miterlimit="10" x1="13.242" y1="238.979" x2="327.93" y2="238.413"/>
	<line fill="none" stroke="#FF8100" stroke-width="14" stroke-miterlimit="10" x1="13.242" y1="281.034" x2="327.93" y2="280.468"/>
	<line fill="none" stroke="#FF8100" stroke-width="14" stroke-miterlimit="10" x1="13.242" y1="325.031" x2="327.93" y2="324.469"/>
	<line fill="none" stroke="#FF8100" stroke-width="14" stroke-miterlimit="10" x1="13.242" y1="366.446" x2="327.93" y2="365.885"/>
	<line fill="none" stroke="#FF8100" stroke-width="14" stroke-miterlimit="10" x1="13.242" y1="411.746" x2="327.93" y2="411.174"/>
	<line fill="none" stroke="#FF8100" stroke-width="14" stroke-miterlimit="10" x1="75.038" y1="432.89" x2="13.72" y2="468.479"/>
	<line fill="none" stroke="#FF8100" stroke-width="14" stroke-miterlimit="10" x1="73.834" y1="101.263" x2="13.242" y2="137.18"/>
	
		<line fill="none" stroke="#FF8100" stroke-width="14" stroke-miterlimit="10" x1="231.074" y1="101.263" x2="170.477" y2="137.18"/>
	
		<line fill="none" stroke="#FF8100" stroke-width="14" stroke-miterlimit="10" x1="233.016" y1="433.212" x2="172.418" y2="469.123"/>
	<line fill="none" stroke="#FF8100" stroke-width="14" stroke-miterlimit="10" x1="73.834" y1="160.796" x2="13.242" y2="196.708"/>
	
		<line fill="none" stroke="#FF8100" stroke-width="14" stroke-miterlimit="10" x1="388.289" y1="161.123" x2="73.834" y2="160.796"/>
	
		<line fill="none" stroke="#FF8100" stroke-width="14" stroke-miterlimit="10" x1="172.159" y1="137.023" x2="172.227" y2="470.421"/>
	
		<line fill="none" stroke="#FF8100" stroke-width="14" stroke-miterlimit="10" x1="231.043" y1="101.435" x2="231.11" y2="434.833"/>
	
		<line fill="none" stroke="#FF8100" stroke-width="14" stroke-miterlimit="10" x1="389.598" y1="203.177" x2="75.126" y2="202.855"/>
	
		<line fill="none" stroke="#FF8100" stroke-width="14" stroke-miterlimit="10" x1="387.645" y1="245.237" x2="73.185" y2="244.914"/>
	
		<line fill="none" stroke="#FF8100" stroke-width="14" stroke-miterlimit="10" x1="387.645" y1="289.238" x2="73.185" y2="288.916"/>
	
		<line fill="none" stroke="#FF8100" stroke-width="14" stroke-miterlimit="10" x1="389.598" y1="330.659" x2="75.126" y2="330.326"/>
	
		<line fill="none" stroke="#FF8100" stroke-width="14" stroke-miterlimit="10" x1="387.645" y1="375.294" x2="73.185" y2="374.972"/>
	<line fill="none" stroke="#FF8100" stroke-width="14" stroke-miterlimit="10" x1="74.794" y1="202.855" x2="14.203" y2="238.767"/>
	<line fill="none" stroke="#FF8100" stroke-width="14" stroke-miterlimit="10" x1="73.834" y1="244.914" x2="13.242" y2="280.826"/>
	<line fill="none" stroke="#FF8100" stroke-width="14" stroke-miterlimit="10" x1="73.834" y1="288.916" x2="13.242" y2="324.822"/>
	<line fill="none" stroke="#FF8100" stroke-width="14" stroke-miterlimit="10" x1="73.355" y1="330.326" x2="12.765" y2="366.237"/>
	<line fill="none" stroke="#FF8100" stroke-width="14" stroke-miterlimit="10" x1="73.834" y1="374.972" x2="13.242" y2="410.884"/>
	
		<line fill="none" stroke="#FF8100" stroke-width="14" stroke-miterlimit="10" x1="389.254" y1="432.89" x2="326.024" y2="470.421"/>
	
		<line fill="none" stroke="#FF8100" stroke-width="14" stroke-miterlimit="10" x1="387.333" y1="101.585" x2="326.024" y2="137.18"/>
	
		<line fill="none" stroke="#FF8100" stroke-width="14" stroke-miterlimit="10" x1="388.289" y1="161.123" x2="326.985" y2="196.708"/>
	
		<line fill="none" stroke="#FF8100" stroke-width="14" stroke-miterlimit="10" x1="388.289" y1="203.177" x2="326.985" y2="238.767"/>
	
		<line fill="none" stroke="#FF8100" stroke-width="14" stroke-miterlimit="10" x1="387.333" y1="245.237" x2="326.024" y2="280.826"/>
	
		<line fill="none" stroke="#FF8100" stroke-width="14" stroke-miterlimit="10" x1="387.333" y1="288.594" x2="326.024" y2="324.179"/>
	
		<line fill="none" stroke="#FF8100" stroke-width="14" stroke-miterlimit="10" x1="388.289" y1="330.659" x2="326.985" y2="366.237"/>
	
		<line fill="none" stroke="#FF8100" stroke-width="14" stroke-miterlimit="10" x1="388.289" y1="375.294" x2="326.985" y2="410.884"/>
	<polygon fill="#FFFFFF" stroke="#FF8100" stroke-width="14" stroke-miterlimit="10" points="730.633,727.181 416.743,727.181 
		419.225,395.929 730.633,393.447 	"/>
	
		<rect x="478.161" y="358.085" fill="none" stroke="#FF8100" stroke-width="14" stroke-miterlimit="10" width="313.878" height="333.744"/>
	
		<rect x="478.161" y="358.085" opacity="0.1" fill="#0A819A" stroke="#FF8100" stroke-width="14" stroke-miterlimit="10" enable-background="new    " width="313.878" height="333.744"/>
	
		<polygon opacity="0.5" fill="#0A819A" stroke="#006383" stroke-width="14" stroke-miterlimit="10" enable-background="new    " points="
		730.019,726.558 417.366,726.558 418.604,395.306 730.019,394.07 	"/>
	
		<polygon opacity="0.8" fill="#0A819A" stroke="#FF8100" stroke-width="14" stroke-miterlimit="10" enable-background="new    " points="
		730.569,394.07 417.7,394.07 478.286,358.085 791.718,358.086 	"/>
	
		<polygon opacity="0.2" fill="#0A819A" stroke="#FF8100" stroke-width="14" stroke-miterlimit="10" enable-background="new    " points="
		731.225,726.558 418.353,726.558 478.95,690.585 792.371,690.585 	"/>
	
		<polygon opacity="0.3" fill="#0A819A" stroke="#FF8100" stroke-width="14" stroke-miterlimit="10" enable-background="new    " points="
		417.388,726.268 418.353,394.319 478.95,358.085 478.535,690.022 	"/>
	
		<polygon opacity="0.6" fill="#0A819A" stroke="#FF8100" stroke-width="14" stroke-miterlimit="10" enable-background="new    " points="
		731.225,726.268 732.181,394.319 792.768,358.086 792.371,690.022 	"/>
	
		<line fill="none" stroke="#FF8100" stroke-width="14" stroke-miterlimit="10" x1="479.49" y1="689.712" x2="418.176" y2="725.294"/>
	<line fill="none" stroke="#FF8100" stroke-width="14" stroke-miterlimit="10" x1="478.286" y1="358.085" x2="417.7" y2="395.234"/>
	
		<line fill="none" stroke="#FF8100" stroke-width="14" stroke-miterlimit="10" x1="793.711" y1="689.712" x2="730.486" y2="727.243"/>
	<line fill="none" stroke="#FF8100" stroke-width="14" stroke-miterlimit="10" x1="791.8" y1="358.408" x2="730.486" y2="393.997"/>
</g>
</svg>
