<?xml version="1.0" encoding="utf-16"?>
<!-- Generator: Adobe Illustrator 16.0.0, SVG Export Plug-In . SVG Version: 6.00 Build 0)  -->
<!DOCTYPE svg PUBLIC "-//W3C//DTD SVG 1.1//EN" "http://www.w3.org/Graphics/SVG/1.1/DTD/svg11.dtd">
<svg version="1.1" id="Calque_1" xmlns="http://www.w3.org/2000/svg" xmlns:xlink="http://www.w3.org/1999/xlink" x="0px" y="0px"
	 width="800px" height="800px" viewBox="0 0 800 800" enable-background="new 0 0 800 800" xml:space="preserve">
<g id="Calque_3">
	<g>
		<path fill="#FF8100" d="M23.969,304.426c-0.451,0.197,2.306-1.361,6.073-0.435c3.74,0.854,7.782,3.348,12.013,7.008
			c8.472,7.363,18.308,19.459,29.169,35.719c2.7,4.073,5.469,8.403,8.301,12.993c1.415,2.295,2.85,4.653,4.286,7.081
			c1.414,2.438,2.842,4.941,4.277,7.512c2.872,5.147,5.785,10.556,8.707,16.313c1.459,2.882,2.924,5.85,4.374,8.954
			c0.708,1.561,1.416,3.153,2.12,4.803c0.623,1.442,1.365,2.947,2.051,4.433c2.802,5.961,5.682,12.24,8.699,18.279
			c2.982,6.153,6.052,12.483,9.201,18.979c3.124,6.525,6.556,13.132,9.934,19.918c3.473,6.759,6.81,13.731,10.495,20.744
			c1.817,3.509,3.653,7.056,5.506,10.636c1.887,3.563,3.795,7.158,5.719,10.79c1.848,3.656,3.825,7.301,5.762,10.996
			c1.95,3.691,3.901,7.416,5.95,11.138c2.029,3.725,4.075,7.481,6.137,11.269c2.089,3.772,4.265,7.539,6.325,11.39
			c2.054,3.853,4.243,7.682,6.378,11.561c2.135,3.881,4.323,7.768,6.566,11.66c4.398,7.824,9.078,15.634,13.67,23.594
			c2.311,3.966,4.636,7.958,6.975,11.974c2.34,4.01,4.772,7.998,7.17,12.029c2.387,4.037,4.886,8.037,7.36,12.075
			c1.266,2.063,2.534,4.131,3.806,6.206c1.407,2.407,2.818,4.82,4.234,7.241c2.42,4.259,4.636,8.055,6.862,11.647
			c2.214,3.577,4.41,6.893,6.518,9.772c2.088,2.858,4.143,5.307,5.624,6.691c0.719,0.671,1.285,1.063,1.399,0.981
			c0.064-0.113-0.23-0.678-1.963-1.998c-0.87-0.64-2.107-1.453-3.94-2.341c-1.827-0.879-4.292-1.814-7.436-2.494
			c-0.803-0.178-1.575-0.301-2.467-0.444c-0.435-0.063-0.87-0.119-1.307-0.163c-0.358-0.038-3.202-0.245-1.695-0.148l0.481,0.005
			c0.316,0.014,0.337-0.001-0.565-0.054c-0.617-0.034-1.236-0.054-1.856-0.055c-0.55-0.008-1.39,0.03-1.7,0.034
			c-2.98,0.097-6.232,0.594-9.21,1.465c-2.991,0.859-5.691,2.055-7.871,3.277c-2.19,1.227-3.879,2.459-5.162,3.511
			c-2.569,2.162-3.544,3.406-4.087,3.986c-0.492,0.523-0.482,0.388-0.327-0.192l0.901-2.805c0.776-2.518,1.696-5.996,2.613-10.009
			c1.039-4.746,2.08-9.506,3.125-14.275c0.334-1.46,0.7-3.02,1.154-4.817c0.462-1.809,0.991-3.839,1.862-6.602
			c0.76-2.525,1.52-5.053,2.28-7.58c0.761-2.529,1.524-5.061,2.287-7.595l1.144-3.801l1.231-3.947
			c1.685-5.267,3.374-10.54,5.063-15.824c3.498-10.422,6.846-20.901,10.644-31.319c1.842-5.218,3.706-10.438,5.664-15.651
			c1.951-5.213,3.82-10.444,5.847-15.65l6.163-15.591l6.402-15.555c2.09-5.197,4.396-10.339,6.665-15.48
			c2.258-5.148,4.53-10.29,6.927-15.394c2.384-5.111,4.677-10.244,7.139-15.322c2.498-5.059,4.993-10.116,7.486-15.166
			c10.14-20.159,21.103-39.892,32.617-59.154c2.967-4.768,5.929-9.527,8.884-14.277c2.96-4.742,6.096-9.384,9.128-14.057
			c1.531-2.331,3.036-4.667,4.617-6.958c1.596-2.282,3.19-4.563,4.783-6.838c1.594-2.274,3.185-4.545,4.772-6.813l2.379-3.396
			c0.709-1.041,0.362-0.515,0.596-0.848l0.289-0.391l0.576-0.783l1.152-1.563c1.536-2.085,3.071-4.166,4.602-6.243l2.314-3.102
			l2.565-3.336c1.733-2.242,3.464-4.48,5.19-6.714c1.729-2.23,3.458-4.485,5.168-6.565c3.452-4.221,6.781-8.508,10.3-12.618
			c3.538-4.096,7.016-8.205,10.557-12.229c3.578-3.989,7.14-7.961,10.688-11.917c3.615-3.883,7.217-7.749,10.801-11.596
			c3.655-3.774,7.292-7.531,10.909-11.269c3.63-3.722,7.439-7.24,11.116-10.83c7.475-7.072,14.93-13.978,22.462-20.606
			c3.721-3.361,7.512-6.598,11.278-9.806c1.882-1.605,3.756-3.205,5.624-4.801c1.919-1.538,3.831-3.071,5.737-4.598
			c7.588-6.139,15.247-11.968,22.793-17.667c3.812-2.799,7.591-5.578,11.344-8.333c3.782-2.71,7.564-5.355,11.35-7.92
			c3.75-2.613,7.596-5.035,11.336-7.513c1.88-1.229,3.746-2.45,5.607-3.666c0.034-0.016,0.939-0.695,0.717-0.505l0.339-0.209
			l0.678-0.417l1.348-0.832l2.691-1.66c1.79-1.104,3.573-2.204,5.345-3.297l2.652-1.636c0.965-0.576,1.93-1.151,2.891-1.724
			c3.846-2.298,7.647-4.563,11.453-6.722c7.502-4.065,14.774-8.079,22.02-11.707c3.605-1.845,7.148-3.688,10.711-5.38
			c3.533-1.737,7.046-3.411,10.53-5.021c7.025-3.092,13.793-6.21,20.477-8.957c3.33-1.394,6.595-2.801,9.833-4.119
			c3.235-1.32,6.467-2.527,9.624-3.749c25.27-9.728,47.596-16.704,66.081-21.952c4.622-1.283,8.998-2.498,13.115-3.641
			c4.141-1.059,8.021-2.051,11.632-2.974c7.209-1.85,13.396-3.251,18.401-4.402c5.004-1.152,8.891-1.902,11.488-2.457
			c2.602-0.539,3.948-0.819,3.948-0.819l2.565,5.896c0,0-4.888,2.196-14.049,6.317c-9.128,4.187-22.556,10.249-39.415,18.4
			c-16.849,8.167-37.225,18.264-59.943,30.973c-11.392,6.298-23.29,13.369-35.702,21.012c-12.341,7.754-25.168,16.136-38.196,25.37
			c-3.209,2.345-6.454,4.712-9.729,7.106l-2.463,1.799l-2.461,1.889c-1.645,1.263-3.296,2.531-4.956,3.807
			c-1.642,1.262-3.291,2.531-4.947,3.805c-1.635,1.315-3.276,2.638-4.928,3.964c-3.284,2.673-6.664,5.289-9.94,8.088
			c-13.304,10.957-26.617,22.812-39.9,35.412c-13.278,12.608-26.488,26.009-39.467,40.187
			c-12.971,14.18-25.811,29.049-38.187,44.719c-3.102,3.911-6.135,7.901-9.224,11.872c-3.069,3.987-6.03,8.08-9.068,12.137
			c-3.033,4.064-5.896,8.229-8.87,12.356c-2.965,4.107-5.827,8.47-8.761,12.713c-11.387,17.025-22.492,34.68-32.899,52.877
			c-10.384,18.227-20.265,36.936-29.626,56.003c-9.321,19.089-18.014,38.583-26.357,58.228c-8.386,19.63-16.142,39.54-23.56,59.493
			c-3.744,9.963-7.264,19.992-10.816,29.973c-3.442,10.009-6.893,19.968-10.191,30.022c-0.833,2.504-1.664,5.008-2.497,7.509
			c-0.72,2.181-1.373,4.688-2.018,7.183c-1.282,5.027-2.542,10.201-3.978,15.355c-1.438,5.16-3.034,10.328-5.007,15.458
			c-1.996,5.119-4.322,10.233-7.652,15.131c-1.692,2.434-3.624,4.832-6.076,6.972c-2.43,2.133-5.426,4.019-8.858,5.066
			c-1.704,0.524-3.494,0.846-5.262,0.925c-0.462,0.024-0.986,0.021-1.476,0.021c-0.28,0-0.458-0.009-0.6-0.018l-0.48-0.029
			c-0.998-0.057-1.851-0.179-2.747-0.354c-3.534-0.709-6.538-2.206-9.124-3.879c-5.158-3.416-8.957-7.563-12.397-11.758
			c-3.406-4.227-6.361-8.602-9.106-13.021c-5.47-8.838-10.084-17.914-14.489-26.786c-1.097-2.215-2.171-4.415-3.254-6.506
			c-1.126-2.188-2.251-4.372-3.372-6.55c-2.241-4.37-4.507-8.7-6.657-13.059c-8.756-17.356-16.935-34.528-24.581-51.384
			c-15.334-33.692-28.529-66.125-39.735-96.416c-2.856-7.551-5.443-15.025-8.058-22.295c-2.456-7.329-4.979-14.442-7.212-21.456
			c-1.139-3.5-2.263-6.954-3.372-10.362c-1.07-3.427-2.124-6.808-3.163-10.138c-2.118-6.67-3.988-13.135-5.855-19.403
			c-0.465-1.569-0.927-3.126-1.383-4.668c-0.466-1.51-0.929-3.006-1.387-4.488c-0.949-2.966-1.936-5.877-2.938-8.728
			c-2.005-5.703-4.069-11.17-6.129-16.393c-4.128-10.444-8.248-19.911-12.213-28.326c-7.927-16.799-15.327-29.508-21.451-36.796
			c-3.017-3.646-5.817-5.775-7.369-6.287c-0.772-0.275-1.178-0.27-1.413-0.243c-0.214,0.038,0.073-0.043-0.223,0.035
			c-0.16,0.044-0.24,0.068-0.24,0.068L23.969,304.426z"/>
	</g>
</g>
</svg>
