<?xml version="1.0" encoding="utf-8"?>
<!-- Generator: Adobe Illustrator 16.0.0, SVG Export Plug-In . SVG Version: 6.00 Build 0)  -->
<!DOCTYPE svg PUBLIC "-//W3C//DTD SVG 1.1//EN" "http://www.w3.org/Graphics/SVG/1.1/DTD/svg11.dtd">
<svg version="1.1" xmlns="http://www.w3.org/2000/svg" xmlns:xlink="http://www.w3.org/1999/xlink" x="0px" y="0px" width="1920px"
	 height="1080px" viewBox="0 0 1920 1080" enable-background="new 0 0 1920 1080" xml:space="preserve">
<g id="MENU_x5F_ANIMATION" display="none">
	<polygon display="inline" opacity="0.68" fill="#63A9C2" points="506.5,1080 -553,1080 -553,0 816.5,0 	"/>
</g>
<g id="MENU_x5F_AIDE" display="none">
	<polygon display="inline" opacity="0.68" fill="#8ECFF5" points="1370.027,1 2434,1 2434,1081 1066.005,1081 	"/>
</g>
<g id="MENU_x5F_BUTTON" display="none">
	<polygon display="inline" opacity="0.68" fill="#757B8A" points="1921,1507 225.002,1507 534.174,566 1921,566 	"/>
</g>
<g id="MENU_x5F_BAR" display="none">
	<polygon display="inline" opacity="0.68" fill="#529B9E" points="0,-468 1696.223,-467 1384.492,473 0,473 	"/>
</g>
<g id="ICONE_x5F_EXPRESSIVE" display="none">
	
		<ellipse display="inline" fill="none" stroke="#4DC4C6" stroke-width="5" stroke-miterlimit="10" cx="989.668" cy="516.076" rx="189.668" ry="197.914"/>
	
		<ellipse display="inline" fill="#478DA8" stroke="#478DA8" stroke-width="2" stroke-miterlimit="10" cx="1227.562" cy="284.667" rx="24.562" ry="21.491"/>
	
		<ellipse display="inline" fill="#478DA8" stroke="#478DA8" stroke-width="2" stroke-miterlimit="10" cx="773.562" cy="277.667" rx="24.562" ry="21.491"/>
	
		<ellipse display="inline" fill="#478DA8" stroke="#478DA8" stroke-width="2" stroke-miterlimit="10" cx="1141.158" cy="294.754" rx="17.982" ry="17.544"/>
	
		<ellipse display="inline" fill="#478DA8" stroke="#478DA8" stroke-width="2" stroke-miterlimit="10" cx="780.158" cy="348.754" rx="17.982" ry="17.544"/>
	
		<circle display="inline" fill="#478DA8" stroke="#478DA8" stroke-width="2" stroke-miterlimit="10" cx="1208.263" cy="440.368" r="19.298"/>
	<circle display="inline" fill="#478DA8" stroke="#478DA8" stroke-miterlimit="10" cx="1063.526" cy="228.965" r="11.403"/>
	<circle display="inline" fill="#478DA8" stroke="#478DA8" stroke-miterlimit="10" cx="737.526" cy="437.965" r="11.403"/>
	<circle display="inline" fill="#478DA8" stroke="#478DA8" stroke-miterlimit="10" cx="913.526" cy="262.965" r="11.403"/>
	<path display="inline" fill="#77E0C6" d="M1241.93,298.138c-4.15,4.958-21.135,6.188-27.43,0.431
		c-8.055-7.365-10.518-17.755-3.519-25.155c6.998-7.4,4.101,8.373,11.797,15.654C1230.475,296.347,1248.467,290.324,1241.93,298.138
		z"/>
	<path display="inline" fill="#77E0C6" d="M1150.333,305.283c-6.561,4.795-14.378,4.795-18.235,1.068
		c-4.458-4.308-7.851-11.76-2.626-17.284c5.224-5.523,3.061,4.757,8.806,10.192C1144.021,304.692,1156.472,300.795,1150.333,305.283
		z"/>
	<path display="inline" fill="#77E0C6" d="M1073.218,231.362c-2.785,5.19-7.896,7.639-11.585,6.412
		c-4.264-1.419-8.816-5.227-7.133-10.476c1.685-5.247,3.492,2.151,8.95,3.903C1068.908,232.953,1075.824,226.504,1073.218,231.362z"
		/>
	<path display="inline" fill="#77E0C6" d="M922.721,260.8c-0.112,5.889-3.544,10.399-7.387,10.989
		c-4.442,0.682-10.23-0.632-11.125-6.07c-0.894-5.438,4.089,0.322,9.746-0.607C919.61,264.181,922.825,255.289,922.721,260.8z"/>
	<path display="inline" fill="#77E0C6" d="M791.163,267.788c6.095,9.896,2.35,19.634-4.217,23.599
		c-7.592,4.582-20.443,6.868-25.857-0.714c-6.319-8.848,7.702-2.486,17.323-8.432C788.029,276.294,785.756,259.01,791.163,267.788z"
		/>
	<path display="inline" fill="#77E0C6" d="M791.958,339.457c5.859,5.985,3.881,15.375-0.622,19.273
		c-5.205,4.505-13.086,7.569-18.376,3.196c-6.506-5.377,4.566-3.916,11.145-9.731C790.68,346.377,786.306,333.684,791.958,339.457z"
		/>
	<path display="inline" fill="#77E0C6" d="M742.099,429.426c4.424,3.527,5.857,8.779,4.062,12.053
		c-2.076,3.785-6.459,7.43-11.129,4.936c-4.668-2.497,2.635-2.93,5.231-7.786C742.859,433.773,737.958,426.126,742.099,429.426z"/>
	<path display="inline" fill="#77E0C6" d="M1210.842,457.063c-7.779,2.35-16.759-5.739-18.382-10.851
		c-2.21-6.962-0.442-17.129,7.031-18.528c7.473-1.399,0.643,7.916,3.136,15.421C1205.25,451,1218.5,454.75,1210.842,457.063z"/>
	
		<ellipse display="inline" fill="none" stroke="#478DA8" stroke-width="9" stroke-miterlimit="10" cx="989.5" cy="516" rx="195.5" ry="204"/>
	
		<radialGradient id="SVGID_1_" cx="1002.4346" cy="527.4355" r="145.5698" fx="997.3569" fy="527.3891" gradientUnits="userSpaceOnUse">
		<stop  offset="0" style="stop-color:#C9E8E8"/>
		<stop  offset="0.1136" style="stop-color:#BFE4E4"/>
		<stop  offset="0.446" style="stop-color:#A6D9DA"/>
		<stop  offset="0.7507" style="stop-color:#97D2D4"/>
		<stop  offset="1" style="stop-color:#92D0D2"/>
	</radialGradient>
	<path display="inline" fill="url(#SVGID_1_)" stroke="#478DA8" stroke-miterlimit="10" d="M945.351,520.824
		c28.061,77.167,9.512,176.021-25.452,214.925s-62.274,69.292-62.274,69.292s12.284,1.752,14.916-0.003s38.598-11.404,38.598-11.404
		l31.58,14.239l24.563,18.627H989c0,0,21.264-40.658,30.035-23.114s20.176,10.438,24.562,11.114s42.105,2.185,42.105,2.185
		s-35.089-27.315-46.491-65.035c-11.404-37.72-38.598-180.324-3.51-211.026s36.844-29.198,92.983-48.496s8.36-12.205,22.179-17.107
		c16.417-5.824,52.924-43.398-7.267-7.641c-88.597,52.631-103.509,34.179-103.509,34.179s-18.463-16.028,23.684-67.458
		c42.147-51.431,49.383-60.396,53.509-65.029c21.878-24.562,49.123-32.456,49.123-32.456s41.17-29.825,24.562-22.807
		s-62.28,26.316-62.28,26.316s14.912-35.965-42.105,40.351c-7.317,9.793-41.229,51.754-43.86,53.509
		c-2.631,1.754-25.053,29.825-25.053,29.825s-12.666-50.877-13.543-54.386s-19.079-68.421-6.646-93.789
		c2.73-5.572,8.4-26.386,37.348-47.439s11.403-26.315-13.158-6.14c-24.561,20.175-38.596,51.754-38.596,51.754
		c3.258,3.903-18-37.167-18.422-14.913c0,0-48.245-33.333-34.21-11.403c31.579,21.053,36.843,21.93,45.614,40.351
		s7.018,64.035,11.403,102.631s-15.79,27.193-15.79,27.193c-14.516-14.559-75.361-84.54-82.214-93.098
		c-18.171-22.691-48.978-48.989-48.978-48.989s-26.571-19.905-14.912-2.632c25.403,23.895,6.246,14.018,6.246,14.018
		s-9.649,12.281,24.561,17.544c-27.193-3.509-70.201,11.782-25.429,10.694c41.311-1.004,20.544-3.497,56.32,31.455
		c121.411,118.614,45.403,86.441-30.996,37.676c-23.381-14.924-82.702-19.667-72.042-14.025
		c39.922,21.131-26.617,19.526-27.958,22.797c-5.754,14.035,71.93-7.018,101.754,11.403
		C912.559,478.196,932.266,491.166,945.351,520.824z"/>
	<g display="inline">
		<text transform="matrix(1 0 0 1 803.1406 542.4346)" fill="#478DA8" font-family="'Kalinga'" font-size="72">Expressive</text>
	</g>
</g>
<g id="TUILES_x5F_DE_x5F_BASE" display="none">
	<path display="inline" fill="#C8ECFD" stroke="#9EDFFD" stroke-width="4" stroke-miterlimit="10" d="M980,219
		c0,6.627-5.373,12-12,12H785c-6.627,0-12-5.373-12-12V114c0-6.627,5.373-12,12-12h183c6.627,0,12,5.373,12,12V219z"/>
</g>
<g id="TUILES_x5F_INTERMEDIAIRE" display="none">
	<path display="inline" fill="#8FCECF" stroke="#0F8F9B" stroke-width="4" stroke-miterlimit="10" d="M710,348
		c0,6.627-5.373,12-12,12H515c-6.627,0-12-5.373-12-12V243c0-6.627,5.373-12,12-12h183c6.627,0,12,5.373,12,12V348z"/>
</g>
<g id="TUILES_x5F_FIN_x5F_DEPLOIEMENT" display="none">
	<path display="inline" fill="#73ACC9" stroke="#1791A1" stroke-width="4" stroke-miterlimit="10" d="M980,470
		c0,6.627-5.373,12-12,12H785c-6.627,0-12-5.373-12-12V365c0-6.627,5.373-12,12-12h183c6.627,0,12,5.373,12,12V470z"/>
</g>
<g id="Avance_rapide_x5F_MODE_x5F_ANIMATION">
	<polygon fill="#DEA6AA" stroke="#AB7B81" stroke-width="4" stroke-miterlimit="10" points="961.5,325 762,455 762,195 961.5,325 	
		"/>
</g>
<g id="Lecture_x5F_MODE_x5F_ANIMATION">
	<polygon fill="#DEA6AA" stroke="#AB7B81" stroke-width="4" stroke-miterlimit="10" points="1016.5,325 817,455 817,195 1016.5,325 
			"/>
</g>
<g id="Pasà_pas_x5F_MODE_x5F_ANIMATION" display="none">
	
		<rect x="1018" y="185" display="inline" fill="#DEA6AA" stroke="#AB7B81" stroke-width="4" stroke-miterlimit="10" width="19" height="277"/>
</g>
</svg>
