<?xml version="1.0" encoding="UTF-8" standalone="no"?>
<!-- Generator: Adobe Illustrator 16.0.0, SVG Export Plug-In . SVG Version: 6.00 Build 0)  -->

<svg
   xmlns:dc="http://purl.org/dc/elements/1.1/"
   xmlns:cc="http://creativecommons.org/ns#"
   xmlns:rdf="http://www.w3.org/1999/02/22-rdf-syntax-ns#"
   xmlns:svg="http://www.w3.org/2000/svg"
   xmlns="http://www.w3.org/2000/svg"
   xmlns:sodipodi="http://sodipodi.sourceforge.net/DTD/sodipodi-0.dtd"
   xmlns:inkscape="http://www.inkscape.org/namespaces/inkscape"
   version="1.1"
   x="0px"
   y="0px"
   width="220"
   height="220.50002"
   viewBox="0 0 220 220.50002"
   enable-background="new 0 0 800 800"
   xml:space="preserve"
   id="svg2"
   inkscape:version="0.48.4 r9939"
   sodipodi:docname="VIEWS_FRONT_HOVERED.svg"><metadata
     id="metadata127"><rdf:RDF><cc:Work
         rdf:about=""><dc:format>image/svg+xml</dc:format><dc:type
           rdf:resource="http://purl.org/dc/dcmitype/StillImage" /></cc:Work></rdf:RDF></metadata><defs
     id="defs125" /><sodipodi:namedview
     pagecolor="#ffffff"
     bordercolor="#666666"
     borderopacity="1"
     objecttolerance="10"
     gridtolerance="10"
     guidetolerance="10"
     inkscape:pageopacity="0"
     inkscape:pageshadow="2"
     inkscape:window-width="1615"
     inkscape:window-height="1026"
     id="namedview123"
     showgrid="false"
     fit-margin-top="0"
     fit-margin-left="0"
     fit-margin-right="0"
     fit-margin-bottom="0"
     inkscape:zoom="2.36"
     inkscape:cx="230.24867"
     inkscape:cy="128.74313"
     inkscape:window-x="65"
     inkscape:window-y="54"
     inkscape:window-maximized="1"
     inkscape:current-layer="Calque_4_1_" /><g
     id="Calque_1"
     display="none"
     style="display:none"
     transform="translate(-310.68343,-287.99999)"><g
       id="Calque_1_1_"><rect
         x="779"
         y="736"
         display="inline"
         enable-background="new    "
         width="267"
         height="259"
         id="rect6"
         style="opacity:0.4;fill:#8dcbcd;display:inline" /></g><g
       id="Calque_2"><rect
         x="227"
         y="271"
         display="inline"
         width="267"
         height="259"
         id="rect9"
         style="fill:#eaebeb;display:inline" /><path
         display="inline"
         stroke-miterlimit="10"
         d="m 386.687,394.25 c 0,45.424 -19.129,82.249 -34.271,82.249 C 337.274,476.499 325,439.674 325,394.25 325,348.825 337.275,312 352.417,312 c 15.142,0 34.27,36.824 34.27,82.25 z"
         id="path11"
         inkscape:connector-curvature="0"
         style="fill:#55aecb;stroke:#8dcbcd;stroke-width:4;stroke-miterlimit:10;display:inline" /><ellipse
         display="inline"
         stroke-miterlimit="10"
         cx="352.41599"
         cy="393.72198"
         rx="27.416"
         ry="26.889"
         id="ellipse13"
         sodipodi:cx="352.41599"
         sodipodi:cy="393.72198"
         sodipodi:rx="27.416"
         sodipodi:ry="26.889"
         style="fill:#55aecb;stroke:#8dcbcd;stroke-width:4;stroke-miterlimit:10;display:inline"
         d="m 379.83199,393.72198 c 0,14.85039 -12.27457,26.889 -27.416,26.889 -15.14144,0 -27.41601,-12.03861 -27.41601,-26.889 0,-14.85038 12.27457,-26.889 27.41601,-26.889 15.14143,0 27.416,12.03862 27.416,26.889 z" /></g><g
       id="Calque_3"><rect
         x="227"
         y="271"
         display="inline"
         width="267"
         height="259"
         id="rect16"
         style="fill:#eaebeb;display:inline" /><ellipse
         display="inline"
         stroke-miterlimit="10"
         cx="359.98099"
         cy="305.53101"
         rx="17.875"
         ry="17.531"
         id="ellipse18"
         sodipodi:cx="359.98099"
         sodipodi:cy="305.53101"
         sodipodi:rx="17.875"
         sodipodi:ry="17.531"
         style="fill:#55aecb;stroke:#8dcbcd;stroke-width:4;stroke-miterlimit:10;display:inline"
         d="m 377.85599,305.53101 c 0,9.6821 -8.00291,17.531 -17.875,17.531 -9.87209,0 -17.875,-7.8489 -17.875,-17.531 0,-9.68211 8.00291,-17.531 17.875,-17.531 9.87209,0 17.875,7.84889 17.875,17.531 z" /><ellipse
         display="inline"
         stroke-miterlimit="10"
         cx="359.98099"
         cy="412.436"
         rx="17.875"
         ry="83.873001"
         id="ellipse20"
         sodipodi:cx="359.98099"
         sodipodi:cy="412.436"
         sodipodi:rx="17.875"
         sodipodi:ry="83.873001"
         style="fill:#55aecb;stroke:#8dcbcd;stroke-miterlimit:10;display:inline"
         d="m 377.85599,412.436 c 0,46.32178 -8.00291,83.87301 -17.875,83.87301 -9.87209,0 -17.875,-37.55123 -17.875,-83.87301 0,-46.32177 8.00291,-83.873 17.875,-83.873 9.87209,0 17.875,37.55123 17.875,83.873 z" /><path
         display="inline"
         stroke-miterlimit="10"
         d="m 370.121,374.107 c 0,24.585 13.234,30.077 1.375,40.39 -7.263,6.315 -27.068,-15.804 -27.068,-40.39 0,-24.584 6.239,-44.516 16.111,-44.516 9.872,0 9.582,19.932 9.582,44.516 z"
         id="path22"
         inkscape:connector-curvature="0"
         style="fill:#55aecb;stroke:#8dcbcd;stroke-width:4;stroke-miterlimit:10;display:inline" /></g><g
       id="Calque_4"><rect
         x="227"
         y="270"
         display="inline"
         width="267"
         height="259"
         id="rect25"
         style="fill:#eaebeb;display:inline" /><ellipse
         display="inline"
         stroke-miterlimit="10"
         cx="361.242"
         cy="308.43799"
         rx="18.799"
         ry="18.438"
         id="ellipse27"
         sodipodi:cx="361.242"
         sodipodi:cy="308.43799"
         sodipodi:rx="18.799"
         sodipodi:ry="18.438"
         style="fill:#55aecb;stroke:#8dcbcd;stroke-width:4;stroke-miterlimit:10;display:inline"
         d="m 380.041,308.43799 c 0,10.18302 -8.41659,18.438 -18.799,18.438 -10.3824,0 -18.799,-8.25498 -18.799,-18.438 0,-10.18303 8.4166,-18.438 18.799,-18.438 10.38241,0 18.799,8.25497 18.799,18.438 z" /><path
         display="inline"
         stroke-miterlimit="10"
         d="m 355.819,461.419 c 0,31.517 0.152,46.581 -8.134,46.581 -8.286,0 -15.003,-15.064 -15.003,-46.581 0,-31.517 -0.361,-45.859 15.003,-45.496 8.284,0.195 8.134,13.979 8.134,45.496 z"
         id="path29"
         inkscape:connector-curvature="0"
         style="fill:#55aecb;stroke:#8dcbcd;stroke-miterlimit:10;display:inline" /><path
         display="inline"
         stroke-miterlimit="10"
         d="m 367.027,461.058 c 0,31.518 -0.152,46.581 8.134,46.581 8.286,0 15.003,-15.063 15.003,-46.581 0,-31.517 0,-45.135 -15.003,-45.495 -8.284,-0.202 -8.134,13.978 -8.134,45.495 z"
         id="path31"
         inkscape:connector-curvature="0"
         style="fill:#55aecb;stroke:#8dcbcd;stroke-miterlimit:10;display:inline" /><path
         display="inline"
         stroke-miterlimit="10"
         d="m 341.382,383.012 c -9.232,24.153 1.705,34.52 -13.818,40.195 -9.507,3.477 -20.657,-25.693 -11.423,-49.845 9.232,-24.152 22.85,-41.388 32.548,-37.681 9.696,3.71 1.926,23.18 -7.307,47.331 z"
         id="path33"
         inkscape:connector-curvature="0"
         style="fill:#55aecb;stroke:#8dcbcd;stroke-width:4;stroke-miterlimit:10;display:inline" /><path
         display="inline"
         stroke-miterlimit="10"
         d="m 380.496,381.928 c 9.233,24.152 -1.705,34.52 13.818,40.195 9.507,3.476 20.657,-25.693 11.423,-49.846 -9.232,-24.151 -22.85,-41.388 -32.547,-37.68 -9.698,3.709 -1.928,23.179 7.306,47.331 z"
         id="path35"
         inkscape:connector-curvature="0"
         style="fill:#55aecb;stroke:#8dcbcd;stroke-width:4;stroke-miterlimit:10;display:inline" /><path
         display="inline"
         stroke-miterlimit="10"
         d="m 390.026,390.56 c 0,31.518 -12.918,46.943 -28.854,46.943 -15.935,0 -28.853,-15.427 -28.853,-46.943 0,-31.516 12.918,-52.004 28.853,-52.004 15.936,0 28.854,20.488 28.854,52.004 z"
         id="path37"
         inkscape:connector-curvature="0"
         style="fill:#55aecb;stroke:#8dcbcd;stroke-miterlimit:10;display:inline" /></g><g
       id="Calque_5"
       display="inline"
       style="display:inline"><rect
         x="227"
         y="270"
         width="267"
         height="259"
         id="rect40"
         style="fill:#eaebeb" /><ellipse
         stroke-miterlimit="10"
         cx="361.07599"
         cy="301.76001"
         rx="20.055"
         ry="19.67"
         id="ellipse42"
         sodipodi:cx="361.07599"
         sodipodi:cy="301.76001"
         sodipodi:rx="20.055"
         sodipodi:ry="19.67"
         style="fill:#55aecb;stroke:#8dcbcd;stroke-width:4;stroke-miterlimit:10"
         d="m 381.13099,301.76001 c 0,10.86344 -8.97893,19.67 -20.055,19.67 -11.07607,0 -20.055,-8.80656 -20.055,-19.67 0,-10.86344 8.97893,-19.67 20.055,-19.67 11.07607,0 20.055,8.80656 20.055,19.67 z" /><path
         stroke-miterlimit="10"
         d="m 367.247,464.576 c 0,33.622 -0.162,49.691 8.679,49.691 8.84,0 16.006,-16.069 16.006,-49.691 0,-33.622 0,-48.15 -16.006,-48.536 -8.838,-0.213 -8.679,14.914 -8.679,48.536 z"
         id="path44"
         inkscape:connector-curvature="0"
         style="fill:#55aecb;stroke:#8dcbcd;stroke-miterlimit:10" /><path
         stroke-miterlimit="10"
         d="m 377.374,380.159 c 9.851,25.766 -1.818,36.825 14.742,42.881 10.144,3.709 22.037,-27.41 12.188,-53.176 -9.851,-25.766 -23.22,-43.38 -33.565,-39.425 -10.348,3.956 -3.216,23.956 6.635,49.72 z"
         id="path46"
         inkscape:connector-curvature="0"
         style="fill:#55aecb;stroke:#8dcbcd;stroke-width:2;stroke-miterlimit:10" /><path
         stroke-miterlimit="10"
         d="m 388.312,378.955 c -7.18,45.545 -10.311,60.492 -27.311,60.492 -30.395,0 -5.711,-34.157 -13.039,-50.078 -15.386,-33.432 -7.895,-56.348 13.039,-55.479 18.588,0.771 32.547,11.853 27.311,45.065 z"
         id="path48"
         inkscape:connector-curvature="0"
         style="fill:#55aecb;stroke:#8dcbcd;stroke-width:4;stroke-miterlimit:10" /><path
         stroke-miterlimit="10"
         d="m 362.619,465.733 c 0,33.622 0.162,49.692 -8.677,49.692 -8.84,0 -16.006,-16.07 -16.006,-49.692 0,-33.622 0.771,-49.695 17.163,-49.309 8.836,0.211 7.52,15.687 7.52,49.309 z"
         id="path50"
         inkscape:connector-curvature="0"
         style="fill:#55aecb;stroke:#8dcbcd;stroke-width:4;stroke-miterlimit:10" /><path
         stroke-miterlimit="10"
         d="m 361.128,380.982 c -1.879,27.52 12.516,34.681 -1.549,45.315 -8.611,6.517 -29.093,-19.761 -27.213,-47.28 1.879,-27.521 10.389,-49.353 21.439,-48.599 11.05,0.757 9.202,23.044 7.323,50.564 z"
         id="path52"
         inkscape:connector-curvature="0"
         style="fill:#55aecb;stroke:#8dcbcd;stroke-width:5;stroke-miterlimit:10" /></g><g
       id="Calque_6"><ellipse
         display="inline"
         stroke-miterlimit="10"
         cx="361"
         cy="150"
         rx="52"
         ry="51"
         id="ellipse55"
         sodipodi:cx="361"
         sodipodi:cy="150"
         sodipodi:rx="52"
         sodipodi:ry="51"
         style="fill:#55aecb;stroke:#8dcbcd;stroke-width:4;stroke-miterlimit:10;display:inline"
         d="m 413,150 c 0,28.16652 -23.28119,51 -52,51 -28.71881,0 -52,-22.83348 -52,-51 0,-28.16652 23.28119,-51 52,-51 28.71881,0 52,22.83348 52,51 z" /><path
         display="inline"
         stroke-miterlimit="10"
         d="M 346,573.154 C 346,660.33 346.42,702 323.5,702 300.58,702 282,660.33 282,573.154 c 0,-87.177 -1,-126.853 41.5,-125.847 22.913,0.544 22.5,38.672 22.5,125.847 z"
         id="path57"
         inkscape:connector-curvature="0"
         style="fill:#55aecb;stroke:#8dcbcd;stroke-miterlimit:10;display:inline" /><path
         display="inline"
         stroke-miterlimit="10"
         d="M 377,572.154 C 377,659.33 376.58,701 399.5,701 422.421,701 441,659.33 441,572.154 441,484.977 441,447.307 399.5,446.307 376.587,445.757 377,484.979 377,572.154 z"
         id="path59"
         inkscape:connector-curvature="0"
         style="fill:#55aecb;stroke:#8dcbcd;stroke-miterlimit:10;display:inline" /><path
         display="inline"
         stroke-miterlimit="10"
         d="m 306.064,356.277 c -25.54,66.806 4.716,95.479 -38.223,111.181 -26.298,9.617 -57.14,-71.068 -31.599,-137.874 25.539,-66.805 63.203,-114.478 90.028,-104.223 26.828,10.256 5.334,64.112 -20.206,130.916 z"
         id="path61"
         inkscape:connector-curvature="0"
         style="fill:#55aecb;stroke:#8dcbcd;stroke-width:4;stroke-miterlimit:10;display:inline" /><path
         display="inline"
         stroke-miterlimit="10"
         d="m 414.256,353.277 c 25.541,66.806 -4.716,95.479 38.224,111.181 26.297,9.617 57.139,-71.068 31.598,-137.874 -25.539,-66.805 -63.203,-114.478 -90.027,-104.223 -26.828,10.256 -5.334,64.112 20.205,130.916 z"
         id="path63"
         inkscape:connector-curvature="0"
         style="fill:#55aecb;stroke:#8dcbcd;stroke-width:4;stroke-miterlimit:10;display:inline" /><path
         display="inline"
         stroke-miterlimit="10"
         d="M 440.617,377.154 C 440.617,464.33 404.887,507 360.808,507 316.729,507 281,464.33 281,377.154 c 0,-87.176 35.731,-143.846 79.81,-143.846 44.079,0 79.807,56.671 79.807,143.846 z"
         id="path65"
         inkscape:connector-curvature="0"
         style="fill:#55aecb;stroke:#8dcbcd;stroke-miterlimit:10;display:inline" /></g><g
       id="Calque_7"><ellipse
         display="inline"
         stroke-miterlimit="10"
         cx="353"
         cy="149"
         rx="52"
         ry="51"
         id="ellipse68"
         sodipodi:cx="353"
         sodipodi:cy="149"
         sodipodi:rx="52"
         sodipodi:ry="51"
         style="fill:#55aecb;stroke:#8dcbcd;stroke-width:4;stroke-miterlimit:10;display:inline"
         d="m 405,149 c 0,28.16652 -23.28119,51 -52,51 -28.71881,0 -52,-22.83348 -52,-51 0,-28.16652 23.28119,-51 52,-51 28.71881,0 52,22.83348 52,51 z" /><ellipse
         display="inline"
         stroke-miterlimit="10"
         cx="353"
         cy="460"
         rx="52"
         ry="244"
         id="ellipse70"
         sodipodi:cx="353"
         sodipodi:cy="460"
         sodipodi:rx="52"
         sodipodi:ry="244"
         style="fill:#55aecb;stroke:#8dcbcd;stroke-miterlimit:10;display:inline"
         d="m 405,460 c 0,134.75748 -23.28119,244 -52,244 -28.71881,0 -52,-109.24252 -52,-244 0,-134.75748 23.28119,-244 52,-244 28.71881,0 52,109.24252 52,244 z" /><path
         display="inline"
         stroke-miterlimit="10"
         d="m 382.5,348.5 c 0,71.521 38.5,87.5 4,117.5 -21.129,18.373 -78.75,-45.979 -78.75,-117.5 0,-71.521 18.156,-129.5 46.875,-129.5 28.719,0 27.875,57.979 27.875,129.5 z"
         id="path72"
         inkscape:connector-curvature="0"
         style="fill:#55aecb;stroke:#8dcbcd;stroke-width:4;stroke-miterlimit:10;display:inline" /></g><g
       id="Calque_8"><path
         display="inline"
         stroke-miterlimit="10"
         d="m 418,400 c 0,86.156 -36.28,156 -65,156 -28.719,0 -52,-69.844 -52,-156 0,-86.156 23.281,-156 52,-156 28.719,0 65,69.844 65,156 z"
         id="path75"
         inkscape:connector-curvature="0"
         style="fill:#55aecb;stroke:#8dcbcd;stroke-width:4;stroke-miterlimit:10;display:inline" /><ellipse
         display="inline"
         stroke-miterlimit="10"
         cx="353"
         cy="399"
         rx="52"
         ry="51"
         id="ellipse77"
         sodipodi:cx="353"
         sodipodi:cy="399"
         sodipodi:rx="52"
         sodipodi:ry="51"
         style="fill:#55aecb;stroke:#8dcbcd;stroke-width:4;stroke-miterlimit:10;display:inline"
         d="m 405,399 c 0,28.16652 -23.28119,51 -52,51 -28.71881,0 -52,-22.83348 -52,-51 0,-28.16652 23.28119,-51 52,-51 28.71881,0 52,22.83348 52,51 z" /></g><g
       id="Calque_9"><ellipse
         display="inline"
         stroke-miterlimit="10"
         cx="331"
         cy="149"
         rx="52"
         ry="51"
         id="ellipse80"
         sodipodi:cx="331"
         sodipodi:cy="149"
         sodipodi:rx="52"
         sodipodi:ry="51"
         style="fill:#55aecb;stroke:#8dcbcd;stroke-width:4;stroke-miterlimit:10;display:inline"
         d="m 383,149 c 0,28.16652 -23.28119,51 -52,51 -28.71881,0 -52,-22.83348 -52,-51 0,-28.16652 23.28119,-51 52,-51 28.71881,0 52,22.83348 52,51 z" /><path
         display="inline"
         stroke-miterlimit="10"
         d="M 347,571.154 C 347,658.33 346.58,700 369.5,700 392.42,700 411,658.33 411,571.154 411,483.977 411,446.307 369.5,445.307 346.587,444.757 347,483.979 347,571.154 z"
         id="path82"
         inkscape:connector-curvature="0"
         style="fill:#55aecb;stroke:#8dcbcd;stroke-miterlimit:10;display:inline" /><path
         display="inline"
         stroke-miterlimit="10"
         d="m 373.256,352.277 c 25.54,66.806 -4.716,95.479 38.224,111.181 26.297,9.617 57.139,-71.068 31.598,-137.874 -25.539,-66.805 -60.203,-112.478 -87.027,-102.223 -26.828,10.256 -8.334,62.112 17.205,128.916 z"
         id="path84"
         inkscape:connector-curvature="0"
         style="fill:#55aecb;stroke:#8dcbcd;stroke-width:4;stroke-miterlimit:10;display:inline" /><path
         display="inline"
         stroke-miterlimit="10"
         d="M 401.617,349.154 C 383,467.243 374.886,506 330.809,506 251.998,506 316,417.438 297,376.154 257.107,289.476 276.531,230.055 330.81,232.308 c 48.19,2 84.383,30.734 70.807,116.846 z"
         id="path86"
         inkscape:connector-curvature="0"
         style="fill:#55aecb;stroke:#8dcbcd;stroke-width:4;stroke-miterlimit:10;display:inline" /><path
         display="inline"
         stroke-miterlimit="10"
         d="M 335,574.154 C 335,661.33 335.42,703 312.5,703 289.58,703 271,661.33 271,574.154 c 0,-87.177 2,-128.853 44.5,-127.847 22.913,0.544 19.5,40.672 19.5,127.847 z"
         id="path88"
         inkscape:connector-curvature="0"
         style="fill:#55aecb;stroke:#8dcbcd;stroke-miterlimit:10;display:inline" /><path
         display="inline"
         stroke-miterlimit="10"
         d="m 331.135,354.411 c -4.873,71.354 32.448,89.92 -4.016,117.499 -22.331,16.892 -75.435,-51.237 -70.561,-122.593 4.871,-71.354 26.936,-127.962 55.588,-126.005 28.654,1.957 23.86,59.745 18.989,131.099 z"
         id="path90"
         inkscape:connector-curvature="0"
         style="fill:#55aecb;stroke:#8dcbcd;stroke-width:5;stroke-miterlimit:10;display:inline" /></g></g><g
     id="Calque_2_1_"
     display="none"
     style="display:none"
     transform="translate(-310.68343,-287.99999)"><rect
       x="226.5"
       y="270.5"
       display="inline"
       width="267"
       height="259"
       id="rect93"
       style="fill:#eaebeb;display:inline" /><path
       display="inline"
       stroke-miterlimit="10"
       d="m 386.687,393.25 c 0,45.424 -19.129,82.248 -34.271,82.248 C 337.275,475.498 325,438.674 325,393.25 325,347.824 337.275,311 352.416,311 c 15.142,0 34.271,36.824 34.271,82.25 z"
       id="path95"
       inkscape:connector-curvature="0"
       style="fill:#55aecb;stroke:#8dcbcd;stroke-width:4;stroke-miterlimit:10;display:inline" /><ellipse
       display="inline"
       stroke-miterlimit="10"
       cx="352.41599"
       cy="392.72299"
       rx="27.416"
       ry="26.889"
       id="ellipse97"
       sodipodi:cx="352.41599"
       sodipodi:cy="392.72299"
       sodipodi:rx="27.416"
       sodipodi:ry="26.889"
       style="fill:#55aecb;stroke:#8dcbcd;stroke-width:4;stroke-miterlimit:10;display:inline"
       d="m 379.83199,392.72299 c 0,14.85039 -12.27457,26.889 -27.416,26.889 -15.14144,0 -27.41601,-12.03861 -27.41601,-26.889 0,-14.85038 12.27457,-26.889 27.41601,-26.889 15.14143,0 27.416,12.03862 27.416,26.889 z" /></g><g
     id="Calque_3_1_"
     display="none"
     style="display:none"
     transform="translate(-310.68343,-287.99999)"><rect
       x="226.5"
       y="270.5"
       display="inline"
       width="267"
       height="259"
       id="rect100"
       style="fill:#eaebeb;display:inline" /><ellipse
       display="inline"
       stroke-miterlimit="10"
       cx="359.98001"
       cy="304.53101"
       rx="17.875"
       ry="17.531"
       id="ellipse102"
       sodipodi:cx="359.98001"
       sodipodi:cy="304.53101"
       sodipodi:rx="17.875"
       sodipodi:ry="17.531"
       style="fill:#55aecb;stroke:#8dcbcd;stroke-width:4;stroke-miterlimit:10;display:inline"
       d="m 377.85501,304.53101 c 0,9.6821 -8.00291,17.531 -17.875,17.531 -9.87209,0 -17.875,-7.8489 -17.875,-17.531 0,-9.68211 8.00291,-17.531 17.875,-17.531 9.87209,0 17.875,7.84889 17.875,17.531 z" /><ellipse
       display="inline"
       stroke-miterlimit="10"
       cx="359.98001"
       cy="411.436"
       rx="17.875"
       ry="83.873001"
       id="ellipse104"
       sodipodi:cx="359.98001"
       sodipodi:cy="411.436"
       sodipodi:rx="17.875"
       sodipodi:ry="83.873001"
       style="fill:#55aecb;stroke:#8dcbcd;stroke-miterlimit:10;display:inline"
       d="m 377.85501,411.436 c 0,46.32178 -8.00291,83.87301 -17.875,83.87301 -9.87209,0 -17.875,-37.55123 -17.875,-83.87301 0,-46.32177 8.00291,-83.873 17.875,-83.873 9.87209,0 17.875,37.55123 17.875,83.873 z" /><path
       display="inline"
       stroke-miterlimit="10"
       d="m 370.121,373.107 c 0,24.586 13.234,30.078 1.375,40.39 -7.264,6.316 -27.069,-15.804 -27.069,-40.39 0,-24.584 6.24,-44.515 16.112,-44.515 9.872,0 9.582,19.931 9.582,44.515 z"
       id="path106"
       inkscape:connector-curvature="0"
       style="fill:#55aecb;stroke:#8dcbcd;stroke-width:4;stroke-miterlimit:10;display:inline" /></g><g
     id="Calque_4_1_"
     transform="translate(-310.68343,-287.99999)"><ellipse
       stroke-miterlimit="10"
       cx="361.242"
       cy="308.43799"
       rx="18.799"
       ry="18.438"
       id="ellipse111"
       sodipodi:cx="361.242"
       sodipodi:cy="308.43799"
       sodipodi:rx="18.799"
       sodipodi:ry="18.438"
       style="fill:#55aecb;stroke:#ffffff;stroke-width:8.00000017;stroke-miterlimit:10;stroke-opacity:1;stroke-dasharray:none"
       d="m 380.041,308.43799 c 0,10.18302 -8.41659,18.438 -18.799,18.438 -10.3824,0 -18.799,-8.25498 -18.799,-18.438 0,-10.18303 8.4166,-18.438 18.799,-18.438 10.38241,0 18.799,8.25497 18.799,18.438 z"
       transform="translate(57.62712,0)" /><path
       stroke-miterlimit="10"
       d="m 413.44612,461.419 c 0,31.517 0.151,46.581 -8.134,46.581 -8.287,0 -15.004,-15.064 -15.004,-46.581 0,-31.517 -0.361,-45.859 15.004,-45.496 8.284,0.195 8.134,13.979 8.134,45.496 z"
       id="path113"
       inkscape:connector-curvature="0"
       style="fill:#55aecb;stroke:#ffffff;stroke-miterlimit:10;stroke-opacity:1;stroke-width:8.00000017;stroke-dasharray:none" /><path
       stroke-miterlimit="10"
       d="m 424.65412,461.058 c 0,31.517 -0.152,46.581 8.134,46.581 8.286,0 15.003,-15.064 15.003,-46.581 0,-31.517 0,-45.135 -15.003,-45.496 -8.284,-0.201 -8.134,13.979 -8.134,45.496 z"
       id="path115"
       inkscape:connector-curvature="0"
       style="fill:#55aecb;stroke:#ffffff;stroke-miterlimit:10;stroke-opacity:1;stroke-width:8.00000017;stroke-dasharray:none" /><path
       stroke-miterlimit="10"
       d="m 399.00912,383.012 c -9.233,24.153 1.705,34.519 -13.819,40.195 -9.507,3.477 -20.657,-25.693 -11.423,-49.845 9.233,-24.152 22.85,-41.387 32.548,-37.68 9.697,3.709 1.927,23.179 -7.306,47.33 z"
       id="path117"
       inkscape:connector-curvature="0"
       style="fill:#55aecb;stroke:#ffffff;stroke-width:8.00000017;stroke-miterlimit:10;stroke-opacity:1;stroke-dasharray:none" /><path
       stroke-miterlimit="10"
       d="m 438.12312,381.928 c 9.232,24.152 -1.705,34.519 13.818,40.195 9.507,3.476 20.656,-25.693 11.423,-49.846 -9.232,-24.151 -22.85,-41.387 -32.548,-37.679 -9.697,3.708 -1.928,23.178 7.307,47.33 z"
       id="path119"
       inkscape:connector-curvature="0"
       style="fill:#55aecb;stroke:#ffffff;stroke-width:8.00000017;stroke-miterlimit:10;stroke-opacity:1;stroke-dasharray:none" /><path
       stroke-miterlimit="10"
       d="m 447.65212,390.56 c 0,31.517 -12.918,46.943 -28.853,46.943 -15.935,0 -28.853,-15.427 -28.853,-46.943 0,-31.516 12.918,-52.004 28.853,-52.004 15.935,0 28.853,20.488 28.853,52.004 z"
       id="path121"
       inkscape:connector-curvature="0"
       style="fill:#55aecb;stroke:#ffffff;stroke-miterlimit:10;stroke-opacity:1;stroke-width:8.00000017;stroke-dasharray:none" /></g></svg>