<?xml version="1.0" encoding="utf-8"?>
<!-- Generator: Adobe Illustrator 16.0.0, SVG Export Plug-In . SVG Version: 6.00 Build 0)  -->
<!DOCTYPE svg PUBLIC "-//W3C//DTD SVG 1.1//EN" "http://www.w3.org/Graphics/SVG/1.1/DTD/svg11.dtd">
<svg version="1.1" xmlns="http://www.w3.org/2000/svg" xmlns:xlink="http://www.w3.org/1999/xlink" x="0px" y="0px" width="800px"
	 height="800px" viewBox="0 0 800 800" enable-background="new 0 0 800 800" xml:space="preserve">
<g id="Calque_1" display="none">
	<rect x="109" y="252" display="inline" fill="#55AECB" width="512" height="320"/>
	<polygon display="inline" fill="#55AECB" points="688,541 621,572 621,252 691,230 	"/>
	<polygon display="inline" fill="#8DCBCD" points="621,252 109,252 179,230 691,230 	"/>
	<rect x="104" y="301" display="inline" fill="#8DCBCD" width="511" height="8"/>
	<polygon display="inline" fill="#5696C1" points="614,301 103,301 114,298 622,297 	"/>
	<polygon display="inline" fill="#5696C1" points="695,269 629,298 623,297 687,269 	"/>
	<rect x="623" y="297" display="inline" fill="#5696C1" width="7" height="8"/>
	<polygon display="inline" fill="#5696C1" points="621,297 621,306 615,309 615,301 	"/>
	<polygon display="inline" fill="#8DCBCD" points="695,277 630,305 630,297 695,269 	"/>
	<rect x="167" y="184" display="inline" fill="#55AECB" width="96" height="60"/>
	<rect x="174" y="188" display="inline" fill="#F29F1B" width="82" height="51"/>
	<rect x="181" y="191" display="inline" fill="#E68E13" width="5" height="45"/>
	<rect x="190" y="191" display="inline" fill="#E68E13" width="5" height="45"/>
	<rect x="230" y="191" display="inline" fill="#E6BE13" width="5" height="45"/>
	<rect x="242" y="191" display="inline" fill="#EDE085" width="5" height="45"/>
	<polygon display="inline" fill="#55AECB" points="275.444,238.199 263,244 263,184.117 276.052,180 	"/>
	<polygon display="inline" fill="#8DCBCD" points="262.813,184 167,184 180.1,180 275.912,180 	"/>
	<path display="inline" fill="#5696C1" d="M484.237,434.664c0,63.275-53.313,114.563-119.14,114.563
		c-65.798,0-119.133-51.286-119.133-114.563c0-63.264,53.334-114.555,119.133-114.555
		C430.924,320.109,484.237,371.4,484.237,434.664z"/>
	<path display="inline" fill="#F29F1B" d="M464.719,434.665c0,52.78-44.471,95.562-99.38,95.562
		c-54.885,0-99.374-42.78-99.374-95.562c0-52.771,44.489-95.556,99.374-95.556C420.248,339.109,464.719,381.894,464.719,434.665z"/>
	<path display="inline" fill="#E68E13" d="M433.21,494.126c-36.252,38.333-98.21,36.101-131.042,8.7
		c-42.134-35.164-42.798-87.654-6.528-125.994c36.27-38.337,10.874,53.735,50.749,91.454
		C386.262,506,469.491,455.788,433.21,494.126z"/>
	<path display="inline" opacity="0.7" fill="#EDE085" enable-background="new    " d="M353.644,364.578
		c17.544-15.575,52.756-3.331,73.441,18.198c26.545,27.627,30.971,57.854,13.418,73.43c-17.554,15.573-10.3-32.75-35.762-61.442
		C379.28,366.074,336.084,380.15,353.644,364.578z"/>
</g>
<g id="Calque_1_-_copie" opacity="0.4">
	<g>
		<image overflow="visible" width="585" height="393" xlink:href="5B4D57E9.png"  transform="matrix(1 0 0 1 72.5 215.5)">
		</image>
	</g>
	<g>
		<image overflow="visible" width="143" height="415" xlink:href="5B4D57EB.png"  transform="matrix(1 0 0 1 584.5 193.5)">
		</image>
	</g>
	<g>
		<image overflow="visible" width="655" height="95" xlink:href="5B4D57EE.png"  transform="matrix(1 0 0 1 72.5 193.5)">
		</image>
	</g>
	<g>
		<image overflow="visible" width="584" height="81" xlink:href="5B4D57EF.png"  transform="matrix(1 0 0 1 67.5 264.5)">
		</image>
	</g>
	<g>
		<image overflow="visible" width="592" height="77" xlink:href="5B4D57EA.png"  transform="matrix(1 0 0 1 66.5 260.5)">
		</image>
	</g>
	<g>
		<image overflow="visible" width="145" height="102" xlink:href="5B4D57E5.png"  transform="matrix(1 0 0 1 586.5 232.5)">
		</image>
	</g>
	<g>
		<image overflow="visible" width="80" height="81" xlink:href="5B4D57E6.png"  transform="matrix(1 0 0 1 586.5 260.5)">
		</image>
	</g>
	<g>
		<image overflow="visible" width="79" height="85" xlink:href="5B4D57E7.png"  transform="matrix(1 0 0 1 578.5 260.5)">
		</image>
	</g>
	<g>
		<image overflow="visible" width="138" height="109" xlink:href="5B4D57F9.png"  transform="matrix(1 0 0 1 593.5 232.5)">
		</image>
	</g>
	<g>
		<image overflow="visible" width="169" height="133" xlink:href="322DB4B2.png"  transform="matrix(1 0 0 1 130.5 147.5)">
		</image>
	</g>
	<g>
		<image overflow="visible" width="155" height="124" xlink:href="322DB4B5.png"  transform="matrix(1 0 0 1 137.5 151.5)">
		</image>
	</g>
	<g>
		<image overflow="visible" width="78" height="118" xlink:href="322DB4B6.png"  transform="matrix(1 0 0 1 144.5 154.5)">
		</image>
	</g>
	<g>
		<image overflow="visible" width="78" height="118" xlink:href="322DB4B4.png"  transform="matrix(1 0 0 1 153.5 154.5)">
		</image>
	</g>
	<g>
		<image overflow="visible" width="78" height="118" xlink:href="322DB4B3.png"  transform="matrix(1 0 0 1 193.5 154.5)">
		</image>
	</g>
	<g>
		<image overflow="visible" width="78" height="118" xlink:href="322DB4AD.png"  transform="matrix(1 0 0 1 205.5 154.5)">
		</image>
	</g>
	<g>
		<image overflow="visible" width="86" height="137" xlink:href="322DB4AE.png"  transform="matrix(1 0 0 1 226.5 143.5)">
		</image>
	</g>
	<g>
		<image overflow="visible" width="182" height="77" xlink:href="322DB4AC.png"  transform="matrix(1 0 0 1 130.5 143.5)">
		</image>
	</g>
	<g>
		<image overflow="visible" width="311" height="302" xlink:href="322DB4D2.png"  transform="matrix(1 0 0 1 209.5 283.5)">
		</image>
	</g>
	<g>
		<image overflow="visible" width="272" height="264" xlink:href="322DB4D5.png"  transform="matrix(1 0 0 1 229.5 302.5)">
		</image>
	</g>
	<g>
		<image overflow="visible" width="246" height="228" xlink:href="322DB4C9.png"  transform="matrix(1 0 0 1 232.5 331.5)">
		</image>
	</g>
	<g opacity="0.7" enable-background="new    ">
		<image overflow="visible" width="174" height="174" xlink:href="322DB4CB.png"  transform="matrix(1 0 0 1 313.5 321.5)">
		</image>
	</g>
</g>
</svg>
