<?xml version="1.0" encoding="utf-8"?>
<!-- Generator: Adobe Illustrator 16.0.0, SVG Export Plug-In . SVG Version: 6.00 Build 0)  -->
<!DOCTYPE svg PUBLIC "-//W3C//DTD SVG 1.1//EN" "http://www.w3.org/Graphics/SVG/1.1/DTD/svg11.dtd">
<svg version="1.1" xmlns="http://www.w3.org/2000/svg" xmlns:xlink="http://www.w3.org/1999/xlink" x="0px" y="0px" width="800px"
	 height="800px" viewBox="0 0 800 800" enable-background="new 0 0 800 800" xml:space="preserve">
<g id="TOP">
	<g id="Calque_1_2_" display="none">
		<g id="Calque_1_1_" display="inline">
			<rect x="779" y="736" opacity="0.4" fill="#8DCBCD" enable-background="new    " width="267" height="259"/>
		</g>
		<g id="Calque_2" display="inline">
			<rect x="227" y="271" fill="#EAEBEB" width="267" height="259"/>
			<path fill="#55AECB" stroke="#8DCBCD" stroke-width="4" stroke-miterlimit="10" d="M386.687,394.25
				c0,45.424-19.129,82.249-34.271,82.249c-15.142,0-27.416-36.825-27.416-82.249c0-45.425,12.275-82.25,27.417-82.25
				C367.559,312,386.687,348.824,386.687,394.25z"/>
			
				<ellipse fill="#55AECB" stroke="#8DCBCD" stroke-width="4" stroke-miterlimit="10" cx="352.416" cy="393.722" rx="27.416" ry="26.889"/>
		</g>
		<g id="Calque_3" display="inline">
			<rect x="227" y="271" fill="#EAEBEB" width="267" height="259"/>
			
				<ellipse fill="#55AECB" stroke="#8DCBCD" stroke-width="4" stroke-miterlimit="10" cx="359.981" cy="305.531" rx="17.875" ry="17.531"/>
			<ellipse fill="#55AECB" stroke="#8DCBCD" stroke-miterlimit="10" cx="359.981" cy="412.436" rx="17.875" ry="83.873"/>
			<path fill="#55AECB" stroke="#8DCBCD" stroke-width="4" stroke-miterlimit="10" d="M370.121,374.107
				c0,24.585,13.234,30.076,1.375,40.39c-7.263,6.315-27.067-15.804-27.067-40.39c0-24.584,6.238-44.517,16.11-44.517
				S370.121,349.523,370.121,374.107z"/>
		</g>
		<g id="Calque_4" display="inline">
			<rect x="227" y="270" fill="#EAEBEB" width="267" height="259"/>
			
				<ellipse fill="#55AECB" stroke="#8DCBCD" stroke-width="4" stroke-miterlimit="10" cx="361.242" cy="308.438" rx="18.799" ry="18.438"/>
			<path fill="#55AECB" stroke="#8DCBCD" stroke-miterlimit="10" d="M355.819,461.419c0,31.517,0.152,46.581-8.134,46.581
				s-15.003-15.064-15.003-46.581s-0.361-45.859,15.003-45.496C355.969,416.118,355.819,429.902,355.819,461.419z"/>
			<path fill="#55AECB" stroke="#8DCBCD" stroke-miterlimit="10" d="M367.027,461.058c0,31.519-0.152,46.581,8.134,46.581
				s15.003-15.063,15.003-46.581c0-31.517,0-45.135-15.003-45.495C366.877,415.361,367.027,429.541,367.027,461.058z"/>
			<path fill="#55AECB" stroke="#8DCBCD" stroke-width="4" stroke-miterlimit="10" d="M341.382,383.012
				c-9.231,24.153,1.705,34.521-13.817,40.195c-9.507,3.477-20.657-25.693-11.423-49.845c9.231-24.152,22.85-41.389,32.548-37.682
				C358.385,339.391,350.615,358.861,341.382,383.012z"/>
			<path fill="#55AECB" stroke="#8DCBCD" stroke-width="4" stroke-miterlimit="10" d="M380.496,381.928
				c9.233,24.152-1.705,34.521,13.818,40.195c9.507,3.476,20.657-25.693,11.423-49.846c-9.232-24.151-22.85-41.389-32.547-37.681
				C363.492,338.306,371.262,357.776,380.496,381.928z"/>
			<path fill="#55AECB" stroke="#8DCBCD" stroke-miterlimit="10" d="M390.026,390.56c0,31.519-12.918,46.943-28.854,46.943
				c-15.935,0-28.853-15.427-28.853-46.943c0-31.516,12.918-52.004,28.853-52.004C377.108,338.556,390.026,359.044,390.026,390.56z"
				/>
		</g>
		<g id="Calque_5" display="inline">
			<rect x="227" y="270" fill="#EAEBEB" width="267" height="259"/>
			
				<ellipse fill="#55AECB" stroke="#8DCBCD" stroke-width="4" stroke-miterlimit="10" cx="361.076" cy="301.76" rx="20.055" ry="19.67"/>
			<path fill="#55AECB" stroke="#8DCBCD" stroke-miterlimit="10" d="M367.247,464.576c0,33.622-0.162,49.69,8.68,49.69
				c8.84,0,16.006-16.068,16.006-49.69s0-48.15-16.006-48.536C367.088,415.827,367.247,430.954,367.247,464.576z"/>
			<path fill="#55AECB" stroke="#8DCBCD" stroke-width="2" stroke-miterlimit="10" d="M377.374,380.159
				c9.852,25.766-1.817,36.825,14.742,42.881c10.145,3.709,22.037-27.41,12.188-53.176c-9.852-25.767-23.221-43.38-33.565-39.425
				C360.391,334.395,367.523,354.395,377.374,380.159z"/>
			<path fill="#55AECB" stroke="#8DCBCD" stroke-width="4" stroke-miterlimit="10" d="M388.312,378.955
				c-7.18,45.545-10.312,60.492-27.312,60.492c-30.395,0-5.711-34.157-13.039-50.078c-15.386-33.432-7.895-56.348,13.039-55.479
				C379.589,334.661,393.548,345.743,388.312,378.955z"/>
			<path fill="#55AECB" stroke="#8DCBCD" stroke-width="4" stroke-miterlimit="10" d="M362.619,465.733
				c0,33.622,0.162,49.691-8.677,49.691c-8.84,0-16.006-16.069-16.006-49.691s0.771-49.695,17.163-49.31
				C363.935,416.635,362.619,432.111,362.619,465.733z"/>
			<path fill="#55AECB" stroke="#8DCBCD" stroke-width="5" stroke-miterlimit="10" d="M361.128,380.982
				c-1.879,27.52,12.517,34.681-1.549,45.314c-8.61,6.518-29.093-19.761-27.213-47.28c1.879-27.521,10.389-49.353,21.439-48.599
				C364.855,331.175,363.007,353.462,361.128,380.982z"/>
		</g>
		<g id="Calque_6" display="inline">
			<ellipse fill="#55AECB" stroke="#8DCBCD" stroke-width="4" stroke-miterlimit="10" cx="361" cy="150" rx="52" ry="51"/>
			<path fill="#55AECB" stroke="#8DCBCD" stroke-miterlimit="10" d="M346,573.154C346,660.33,346.42,702,323.5,702
				S282,660.33,282,573.154c0-87.178-1-126.854,41.5-125.848C346.413,447.851,346,485.979,346,573.154z"/>
			<path fill="#55AECB" stroke="#8DCBCD" stroke-miterlimit="10" d="M377,572.154C377,659.33,376.58,701,399.5,701
				c22.922,0,41.5-41.67,41.5-128.846c0-87.178,0-124.848-41.5-125.848C376.587,445.757,377,484.979,377,572.154z"/>
			<path fill="#55AECB" stroke="#8DCBCD" stroke-width="4" stroke-miterlimit="10" d="M306.064,356.277
				c-25.54,66.806,4.716,95.479-38.223,111.181c-26.299,9.617-57.141-71.068-31.6-137.874
				c25.539-66.805,63.203-114.478,90.028-104.223C353.098,235.617,331.604,289.473,306.064,356.277z"/>
			<path fill="#55AECB" stroke="#8DCBCD" stroke-width="4" stroke-miterlimit="10" d="M414.256,353.277
				c25.542,66.806-4.716,95.479,38.225,111.181c26.297,9.617,57.139-71.068,31.598-137.874
				c-25.539-66.805-63.203-114.478-90.026-104.223C367.223,232.617,388.718,286.473,414.256,353.277z"/>
			<path fill="#55AECB" stroke="#8DCBCD" stroke-miterlimit="10" d="M440.617,377.154c0,87.176-35.729,129.846-79.809,129.846
				S281,464.33,281,377.154c0-87.176,35.731-143.846,79.811-143.846S440.617,289.979,440.617,377.154z"/>
		</g>
		<g id="Calque_7" display="inline">
			<ellipse fill="#55AECB" stroke="#8DCBCD" stroke-width="4" stroke-miterlimit="10" cx="353" cy="149" rx="52" ry="51"/>
			<ellipse fill="#55AECB" stroke="#8DCBCD" stroke-miterlimit="10" cx="353" cy="460" rx="52" ry="244"/>
			<path fill="#55AECB" stroke="#8DCBCD" stroke-width="4" stroke-miterlimit="10" d="M382.5,348.5c0,71.521,38.5,87.5,4,117.5
				c-21.129,18.373-78.75-45.979-78.75-117.5c0-71.521,18.156-129.5,46.875-129.5C383.344,219,382.5,276.979,382.5,348.5z"/>
		</g>
		<g id="Calque_8" display="inline">
			<path fill="#55AECB" stroke="#8DCBCD" stroke-width="4" stroke-miterlimit="10" d="M418,400c0,86.156-36.279,156-65,156
				c-28.719,0-52-69.844-52-156s23.281-156,52-156C381.719,244,418,313.844,418,400z"/>
			<ellipse fill="#55AECB" stroke="#8DCBCD" stroke-width="4" stroke-miterlimit="10" cx="353" cy="399" rx="52" ry="51"/>
		</g>
		<g id="Calque_9" display="inline">
			<ellipse fill="#55AECB" stroke="#8DCBCD" stroke-width="4" stroke-miterlimit="10" cx="331" cy="149" rx="52" ry="51"/>
			<path fill="#55AECB" stroke="#8DCBCD" stroke-miterlimit="10" d="M347,571.154C347,658.33,346.58,700,369.5,700
				S411,658.33,411,571.154c0-87.178,0-124.848-41.5-125.848C346.587,444.757,347,483.979,347,571.154z"/>
			<path fill="#55AECB" stroke="#8DCBCD" stroke-width="4" stroke-miterlimit="10" d="M373.256,352.277
				c25.54,66.806-4.716,95.479,38.225,111.181c26.297,9.617,57.139-71.068,31.598-137.874
				c-25.539-66.805-60.203-112.478-87.026-102.223C329.223,233.617,347.718,285.473,373.256,352.277z"/>
			<path fill="#55AECB" stroke="#8DCBCD" stroke-width="4" stroke-miterlimit="10" d="M401.617,349.154
				C383,467.243,374.886,506,330.809,506C251.998,506,316,417.438,297,376.154c-39.893-86.678-20.469-146.099,33.811-143.846
				C379,234.308,415.193,263.042,401.617,349.154z"/>
			<path fill="#55AECB" stroke="#8DCBCD" stroke-miterlimit="10" d="M335,574.154C335,661.33,335.42,703,312.5,703
				S271,661.33,271,574.154c0-87.178,2-128.854,44.5-127.848C338.413,446.851,335,486.979,335,574.154z"/>
			<path fill="#55AECB" stroke="#8DCBCD" stroke-width="5" stroke-miterlimit="10" d="M331.135,354.411
				c-4.873,71.354,32.447,89.92-4.017,117.499c-22.331,16.892-75.435-51.237-70.561-122.593
				c4.871-71.354,26.936-127.962,55.588-126.005C340.801,225.269,336.006,283.057,331.135,354.411z"/>
		</g>
	</g>
	<g id="Calque_2_1_">
		<rect x="226.5" y="270.5" fill="#EAEBEB" width="267" height="259"/>
		<path fill="#55AECB" stroke="#8DCBCD" stroke-width="4" stroke-miterlimit="10" d="M386.687,393.25
			c0,45.424-19.129,82.248-34.271,82.248c-15.141,0-27.416-36.824-27.416-82.248c0-45.426,12.275-82.25,27.416-82.25
			C367.558,311,386.687,347.824,386.687,393.25z"/>
		
			<ellipse fill="#55AECB" stroke="#8DCBCD" stroke-width="4" stroke-miterlimit="10" cx="352.416" cy="392.723" rx="27.416" ry="26.889"/>
	</g>
</g>
<g id="SIDE" display="none">
	<g id="Calque_3_2_" display="inline">
		<rect x="226.5" y="270.5" fill="#EAEBEB" width="267" height="259"/>
		
			<ellipse fill="#55AECB" stroke="#8DCBCD" stroke-width="4" stroke-miterlimit="10" cx="359.98" cy="304.531" rx="17.875" ry="17.531"/>
		<ellipse fill="#55AECB" stroke="#8DCBCD" stroke-miterlimit="10" cx="359.98" cy="411.436" rx="17.875" ry="83.873"/>
		<path fill="#55AECB" stroke="#8DCBCD" stroke-width="4" stroke-miterlimit="10" d="M370.121,373.107
			c0,24.586,13.234,30.077,1.375,40.39c-7.264,6.315-27.068-15.804-27.068-40.39c0-24.584,6.239-44.516,16.111-44.516
			S370.121,348.523,370.121,373.107z"/>
	</g>
</g>
<g id="PERS">
	<g id="Calque_5_2_">
		<rect x="226.93" y="270.5" fill="#EAEBEB" width="267" height="259"/>
		
			<ellipse fill="#55AECB" stroke="#8DCBCD" stroke-width="4" stroke-miterlimit="10" cx="361.007" cy="302.26" rx="20.055" ry="19.67"/>
		<path fill="#55AECB" stroke="#8DCBCD" stroke-miterlimit="10" d="M367.177,465.076c0,33.622-0.162,49.691,8.679,49.691
			c8.84,0,16.006-16.069,16.006-49.691s0-48.15-16.006-48.536C367.018,416.327,367.177,431.454,367.177,465.076z"/>
		<path fill="#55AECB" stroke="#8DCBCD" stroke-width="2" stroke-miterlimit="10" d="M377.304,380.659
			c9.851,25.766-1.818,36.825,14.742,42.881c10.144,3.709,22.037-27.41,12.188-53.176c-9.851-25.766-23.22-43.38-33.565-39.425
			C360.322,334.895,367.454,354.895,377.304,380.659z"/>
		<path fill="#55AECB" stroke="#8DCBCD" stroke-width="4" stroke-miterlimit="10" d="M388.243,379.455
			c-7.18,45.545-10.311,60.492-27.311,60.492c-30.395,0-5.711-34.157-13.039-50.078c-15.386-33.432-7.895-56.348,13.039-55.479
			C379.519,335.161,393.478,346.243,388.243,379.455z"/>
		<path fill="#55AECB" stroke="#8DCBCD" stroke-width="4" stroke-miterlimit="10" d="M362.55,466.233
			c0,33.622,0.162,49.692-8.677,49.692c-8.84,0-16.006-16.07-16.006-49.692s0.771-49.695,17.163-49.309
			C363.866,417.135,362.55,432.611,362.55,466.233z"/>
		<path fill="#55AECB" stroke="#8DCBCD" stroke-width="5" stroke-miterlimit="10" d="M361.058,381.482
			c-1.879,27.52,12.516,34.681-1.549,45.315c-8.611,6.517-29.093-19.761-27.213-47.28c1.879-27.521,10.389-49.353,21.439-48.599
			C364.786,331.675,362.937,353.962,361.058,381.482z"/>
	</g>
</g>
<g id="FRONT" display="none">
	<g id="Calque_4_1_" display="inline">
		<rect x="226.5" y="270.5" fill="#EAEBEB" width="267" height="259"/>
		
			<ellipse fill="#55AECB" stroke="#8DCBCD" stroke-width="4" stroke-miterlimit="10" cx="361.242" cy="308.438" rx="18.799" ry="18.438"/>
		<path fill="#55AECB" stroke="#8DCBCD" stroke-miterlimit="10" d="M355.819,461.419c0,31.517,0.151,46.581-8.134,46.581
			c-8.287,0-15.004-15.064-15.004-46.581s-0.361-45.859,15.004-45.496C355.969,416.118,355.819,429.902,355.819,461.419z"/>
		<path fill="#55AECB" stroke="#8DCBCD" stroke-miterlimit="10" d="M367.027,461.058c0,31.518-0.152,46.581,8.134,46.581
			s15.003-15.063,15.003-46.581c0-31.517,0-45.135-15.003-45.495C366.877,415.361,367.027,429.541,367.027,461.058z"/>
		<path fill="#55AECB" stroke="#8DCBCD" stroke-width="4" stroke-miterlimit="10" d="M341.382,383.012
			c-9.232,24.153,1.705,34.52-13.818,40.195c-9.507,3.477-20.657-25.693-11.423-49.845c9.232-24.152,22.85-41.388,32.548-37.681
			C358.385,339.391,350.615,358.861,341.382,383.012z"/>
		<path fill="#55AECB" stroke="#8DCBCD" stroke-width="4" stroke-miterlimit="10" d="M380.496,381.928
			c9.232,24.152-1.705,34.52,13.818,40.195c9.507,3.476,20.656-25.693,11.423-49.846c-9.232-24.151-22.85-41.388-32.548-37.68
			C363.492,338.306,371.261,357.776,380.496,381.928z"/>
		<path fill="#55AECB" stroke="#8DCBCD" stroke-miterlimit="10" d="M390.025,390.56c0,31.518-12.918,46.943-28.854,46.943
			c-15.935,0-28.853-15.427-28.853-46.943c0-31.516,12.918-52.004,28.853-52.004C377.107,338.556,390.025,359.044,390.025,390.56z"
			/>
	</g>
</g>
<g>
	<rect x="408.5" y="304.5" fill="#529B9E" width="85" height="47.333"/>
</g>
<g id="SELECT_x5F_FRONT" display="none">
	<rect x="226.5" y="270.5" display="inline" fill="#529B9E" width="98.5" height="52"/>
	<rect x="226.5" y="316.44" display="inline" fill="#529B9E" width="49.25" height="43.334"/>
	<rect x="226.5" y="374.167" display="inline" fill="#529B9E" width="77.5" height="43"/>
	<rect x="226.5" y="406.5" display="inline" fill="#529B9E" width="60.5" height="72.5"/>
	<rect x="226.5" y="476.248" display="inline" fill="#529B9E" width="86.184" height="42.252"/>
	<rect x="422.667" y="343.607" display="inline" fill="#529B9E" width="70.833" height="35.744"/>
	<rect x="408.5" y="465.249" display="inline" fill="#529B9E" width="85" height="64.251"/>
	<rect x="453.5" y="435.502" display="inline" fill="#529B9E" width="40" height="36.331"/>
	<rect x="391.862" y="276.5" display="inline" fill="#529B9E" width="101.639" height="34.5"/>
</g>
<g id="SELECT_x5F_PERS">
	<rect x="226.5" y="270.5" fill="#529B9E" width="98.5" height="52"/>
	<rect x="226.5" y="316.44" fill="#529B9E" width="49.25" height="43.334"/>
	<rect x="226.5" y="374.167" fill="#529B9E" width="77.5" height="43"/>
	<rect x="226.5" y="406.5" fill="#529B9E" width="60.5" height="72.5"/>
	<rect x="226.5" y="476.248" fill="#529B9E" width="111.5" height="42.252"/>
	<rect x="422.667" y="343.607" fill="#529B9E" width="70.833" height="35.744"/>
	<rect x="408.5" y="465.249" fill="#529B9E" width="85" height="64.251"/>
	<rect x="453.5" y="435.502" fill="#529B9E" width="40" height="36.331"/>
	<rect x="391.862" y="276.5" fill="#529B9E" width="101.639" height="34.5"/>
</g>
<g id="SELECT_x5F_SIDE" display="none">
	<rect x="226.5" y="270.5" display="inline" fill="#529B9E" width="98.5" height="52"/>
	<rect x="226.5" y="316.44" display="inline" fill="#529B9E" width="49.25" height="43.334"/>
	<rect x="226.5" y="374.167" display="inline" fill="#529B9E" width="77.5" height="43"/>
	<rect x="226.5" y="406.5" display="inline" fill="#529B9E" width="60.5" height="72.5"/>
	<rect x="226.5" y="476.248" display="inline" fill="#529B9E" width="111.5" height="42.252"/>
	<rect x="422.667" y="343.607" display="inline" fill="#529B9E" width="70.833" height="52.059"/>
	<rect x="408.5" y="465.249" display="inline" fill="#529B9E" width="85" height="64.251"/>
	<rect x="453.5" y="435.502" display="inline" fill="#529B9E" width="40" height="36.331"/>
	<rect x="386.687" y="276.5" display="inline" fill="#529B9E" width="106.813" height="34.5"/>
</g>
</svg>
