<?xml version="1.0" encoding="utf-8"?>
<!-- Generator: Adobe Illustrator 16.0.0, SVG Export Plug-In . SVG Version: 6.00 Build 0)  -->
<!DOCTYPE svg PUBLIC "-//W3C//DTD SVG 1.1//EN" "http://www.w3.org/Graphics/SVG/1.1/DTD/svg11.dtd">
<svg version="1.1" id="Calque_1" xmlns="http://www.w3.org/2000/svg" xmlns:xlink="http://www.w3.org/1999/xlink" x="0px" y="0px"
	 width="800px" height="800px" viewBox="0 0 800 800" enable-background="new 0 0 800 800" xml:space="preserve">
<g id="Calque_3_1_">
	<path fill="#55AECB" stroke="#8DCBCD" stroke-width="4" stroke-miterlimit="10" d="M399.629,76.849
		c28.927,0,52.378,22.998,52.378,51.371c0,28.37-23.451,51.37-52.378,51.37c-28.931,0-52.378-23-52.378-51.37
		C347.25,99.847,370.698,76.849,399.629,76.849z"/>
	<path fill="#55AECB" stroke="#8DCBCD" stroke-miterlimit="10" d="M399.629,195.708c28.927,0,52.378,110.034,52.378,245.766
		c0,135.734-23.451,245.769-52.378,245.769c-28.931,0-52.378-110.033-52.378-245.769
		C347.25,305.741,370.698,195.708,399.629,195.708z"/>
	<path fill="#55AECB" stroke="#8DCBCD" stroke-width="4" stroke-miterlimit="10" d="M429.343,329.162
		c0,72.042,38.78,88.137,4.029,118.353c-21.284,18.505-79.319-46.311-79.319-118.353c0-72.037,18.285-130.44,47.213-130.44
		C430.192,198.722,429.343,257.125,429.343,329.162z"/>
</g>
</svg>
